-target:library
-out:"Library/Bee/artifacts/200b0aE.dag/Unity.VisualEffectGraph.Editor.dll"
-refout:"Library/Bee/artifacts/200b0aE.dag/Unity.VisualEffectGraph.Editor.ref.dll"
-define:UNITY_2021_1_17
-define:UNITY_2021_1
-define:UNITY_2021
-define:UNITY_5_3_OR_NEWER
-define:UNITY_5_4_OR_NEWER
-define:UNITY_5_5_OR_NEWER
-define:UNITY_5_6_OR_NEWER
-define:UNITY_2017_1_OR_NEWER
-define:UNITY_2017_2_OR_NEWER
-define:UNITY_2017_3_OR_NEWER
-define:UNITY_2017_4_OR_NEWER
-define:UNITY_2018_1_OR_NEWER
-define:UNITY_2018_2_OR_NEWER
-define:UNITY_2018_3_OR_NEWER
-define:UNITY_2018_4_OR_NEWER
-define:UNITY_2019_1_OR_NEWER
-define:UNITY_2019_2_OR_NEWER
-define:UNITY_2019_3_OR_NEWER
-define:UNITY_2019_4_OR_NEWER
-define:UNITY_2020_1_OR_NEWER
-define:UNITY_2020_2_OR_NEWER
-define:UNITY_2020_3_OR_NEWER
-define:UNITY_2021_1_OR_NEWER
-define:PLATFORM_ARCH_64
-define:UNITY_64
-define:UNITY_INCLUDE_TESTS
-define:USE_SEARCH_ENGINE_API
-define:USE_QUICK_SEARCH_MODULE
-define:SCENE_TEMPLATE_MODULE
-define:ENABLE_AR
-define:ENABLE_AUDIO
-define:ENABLE_CACHING
-define:ENABLE_CLOTH
-define:ENABLE_MICROPHONE
-define:ENABLE_MULTIPLE_DISPLAYS
-define:ENABLE_PHYSICS
-define:ENABLE_TEXTURE_STREAMING
-define:ENABLE_VIRTUALTEXTURING
-define:ENABLE_UNET
-define:ENABLE_LZMA
-define:ENABLE_UNITYEVENTS
-define:ENABLE_VR
-define:ENABLE_WEBCAM
-define:ENABLE_UNITYWEBREQUEST
-define:ENABLE_WWW
-define:ENABLE_CLOUD_SERVICES
-define:ENABLE_CLOUD_SERVICES_COLLAB
-define:ENABLE_CLOUD_SERVICES_COLLAB_SOFTLOCKS
-define:ENABLE_CLOUD_SERVICES_ADS
-define:ENABLE_CLOUD_SERVICES_USE_WEBREQUEST
-define:ENABLE_CLOUD_SERVICES_CRASH_REPORTING
-define:ENABLE_CLOUD_SERVICES_NATIVE_CRASH_REPORTING
-define:ENABLE_CLOUD_SERVICES_PURCHASING
-define:ENABLE_CLOUD_SERVICES_ANALYTICS
-define:ENABLE_CLOUD_SERVICES_UNET
-define:ENABLE_CLOUD_SERVICES_BUILD
-define:ENABLE_CLOUD_LICENSE
-define:ENABLE_EDITOR_HUB_LICENSE
-define:ENABLE_WEBSOCKET_CLIENT
-define:ENABLE_DIRECTOR_AUDIO
-define:ENABLE_DIRECTOR_TEXTURE
-define:ENABLE_MANAGED_JOBS
-define:ENABLE_MANAGED_TRANSFORM_JOBS
-define:ENABLE_MANAGED_ANIMATION_JOBS
-define:ENABLE_MANAGED_AUDIO_JOBS
-define:INCLUDE_DYNAMIC_GI
-define:ENABLE_MONO_BDWGC
-define:ENABLE_SCRIPTING_GC_WBARRIERS
-define:PLATFORM_SUPPORTS_MONO
-define:RENDER_SOFTWARE_CURSOR
-define:ENABLE_VIDEO
-define:PLATFORM_STANDALONE
-define:PLATFORM_STANDALONE_OSX
-define:UNITY_STANDALONE_OSX
-define:UNITY_STANDALONE
-define:ENABLE_GAMECENTER
-define:ENABLE_RUNTIME_GI
-define:ENABLE_MOVIES
-define:ENABLE_NETWORK
-define:ENABLE_CRUNCH_TEXTURE_COMPRESSION
-define:ENABLE_CLUSTER_SYNC
-define:ENABLE_CLUSTERINPUT
-define:ENABLE_SPATIALTRACKING
-define:PLATFORM_UPDATES_TIME_OUTSIDE_OF_PLAYER_LOOP
-define:ENABLE_WEBSOCKET_HOST
-define:ENABLE_MONO
-define:NET_4_6
-define:ENABLE_PROFILER
-define:DEBUG
-define:TRACE
-define:UNITY_ASSERTIONS
-define:UNITY_EDITOR
-define:UNITY_EDITOR_64
-define:UNITY_EDITOR_OSX
-define:ENABLE_UNITY_COLLECTIONS_CHECKS
-define:ENABLE_BURST_AOT
-define:UNITY_TEAM_LICENSE
-define:ENABLE_CUSTOM_RENDER_TEXTURE
-define:ENABLE_DIRECTOR
-define:ENABLE_LOCALIZATION
-define:ENABLE_SPRITES
-define:ENABLE_TERRAIN
-define:ENABLE_TILEMAP
-define:ENABLE_TIMELINE
-define:ENABLE_INPUT_SYSTEM
-define:VFX_HAS_TIMELINE
-define:VFX_HAS_HDRP
-define:CSHARP_7_OR_LATER
-define:CSHARP_7_3_OR_NEWER
-r:"/Applications/Unity/Hub/Editor/2021.1.17f1/Unity.app/Contents/Managed/UnityEditor.Graphs.dll"
-r:"/Applications/Unity/Hub/Editor/2021.1.17f1/Unity.app/Contents/Managed/UnityEngine/UnityEditor.CoreModule.dll"
-r:"/Applications/Unity/Hub/Editor/2021.1.17f1/Unity.app/Contents/Managed/UnityEngine/UnityEditor.DeviceSimulatorModule.dll"
-r:"/Applications/Unity/Hub/Editor/2021.1.17f1/Unity.app/Contents/Managed/UnityEngine/UnityEditor.dll"
-r:"/Applications/Unity/Hub/Editor/2021.1.17f1/Unity.app/Contents/Managed/UnityEngine/UnityEditor.GraphViewModule.dll"
-r:"/Applications/Unity/Hub/Editor/2021.1.17f1/Unity.app/Contents/Managed/UnityEngine/UnityEditor.PackageManagerUIModule.dll"
-r:"/Applications/Unity/Hub/Editor/2021.1.17f1/Unity.app/Contents/Managed/UnityEngine/UnityEditor.QuickSearchModule.dll"
-r:"/Applications/Unity/Hub/Editor/2021.1.17f1/Unity.app/Contents/Managed/UnityEngine/UnityEditor.SceneTemplateModule.dll"
-r:"/Applications/Unity/Hub/Editor/2021.1.17f1/Unity.app/Contents/Managed/UnityEngine/UnityEditor.UIBuilderModule.dll"
-r:"/Applications/Unity/Hub/Editor/2021.1.17f1/Unity.app/Contents/Managed/UnityEngine/UnityEditor.UIElementsModule.dll"
-r:"/Applications/Unity/Hub/Editor/2021.1.17f1/Unity.app/Contents/Managed/UnityEngine/UnityEditor.UIElementsSamplesModule.dll"
-r:"/Applications/Unity/Hub/Editor/2021.1.17f1/Unity.app/Contents/Managed/UnityEngine/UnityEditor.UIServiceModule.dll"
-r:"/Applications/Unity/Hub/Editor/2021.1.17f1/Unity.app/Contents/Managed/UnityEngine/UnityEditor.UnityConnectModule.dll"
-r:"/Applications/Unity/Hub/Editor/2021.1.17f1/Unity.app/Contents/Managed/UnityEngine/UnityEngine.AccessibilityModule.dll"
-r:"/Applications/Unity/Hub/Editor/2021.1.17f1/Unity.app/Contents/Managed/UnityEngine/UnityEngine.AIModule.dll"
-r:"/Applications/Unity/Hub/Editor/2021.1.17f1/Unity.app/Contents/Managed/UnityEngine/UnityEngine.AndroidJNIModule.dll"
-r:"/Applications/Unity/Hub/Editor/2021.1.17f1/Unity.app/Contents/Managed/UnityEngine/UnityEngine.AnimationModule.dll"
-r:"/Applications/Unity/Hub/Editor/2021.1.17f1/Unity.app/Contents/Managed/UnityEngine/UnityEngine.ARModule.dll"
-r:"/Applications/Unity/Hub/Editor/2021.1.17f1/Unity.app/Contents/Managed/UnityEngine/UnityEngine.AssetBundleModule.dll"
-r:"/Applications/Unity/Hub/Editor/2021.1.17f1/Unity.app/Contents/Managed/UnityEngine/UnityEngine.AudioModule.dll"
-r:"/Applications/Unity/Hub/Editor/2021.1.17f1/Unity.app/Contents/Managed/UnityEngine/UnityEngine.ClothModule.dll"
-r:"/Applications/Unity/Hub/Editor/2021.1.17f1/Unity.app/Contents/Managed/UnityEngine/UnityEngine.ClusterInputModule.dll"
-r:"/Applications/Unity/Hub/Editor/2021.1.17f1/Unity.app/Contents/Managed/UnityEngine/UnityEngine.ClusterRendererModule.dll"
-r:"/Applications/Unity/Hub/Editor/2021.1.17f1/Unity.app/Contents/Managed/UnityEngine/UnityEngine.CoreModule.dll"
-r:"/Applications/Unity/Hub/Editor/2021.1.17f1/Unity.app/Contents/Managed/UnityEngine/UnityEngine.CrashReportingModule.dll"
-r:"/Applications/Unity/Hub/Editor/2021.1.17f1/Unity.app/Contents/Managed/UnityEngine/UnityEngine.DirectorModule.dll"
-r:"/Applications/Unity/Hub/Editor/2021.1.17f1/Unity.app/Contents/Managed/UnityEngine/UnityEngine.dll"
-r:"/Applications/Unity/Hub/Editor/2021.1.17f1/Unity.app/Contents/Managed/UnityEngine/UnityEngine.DSPGraphModule.dll"
-r:"/Applications/Unity/Hub/Editor/2021.1.17f1/Unity.app/Contents/Managed/UnityEngine/UnityEngine.GameCenterModule.dll"
-r:"/Applications/Unity/Hub/Editor/2021.1.17f1/Unity.app/Contents/Managed/UnityEngine/UnityEngine.GIModule.dll"
-r:"/Applications/Unity/Hub/Editor/2021.1.17f1/Unity.app/Contents/Managed/UnityEngine/UnityEngine.GridModule.dll"
-r:"/Applications/Unity/Hub/Editor/2021.1.17f1/Unity.app/Contents/Managed/UnityEngine/UnityEngine.HotReloadModule.dll"
-r:"/Applications/Unity/Hub/Editor/2021.1.17f1/Unity.app/Contents/Managed/UnityEngine/UnityEngine.ImageConversionModule.dll"
-r:"/Applications/Unity/Hub/Editor/2021.1.17f1/Unity.app/Contents/Managed/UnityEngine/UnityEngine.IMGUIModule.dll"
-r:"/Applications/Unity/Hub/Editor/2021.1.17f1/Unity.app/Contents/Managed/UnityEngine/UnityEngine.InputLegacyModule.dll"
-r:"/Applications/Unity/Hub/Editor/2021.1.17f1/Unity.app/Contents/Managed/UnityEngine/UnityEngine.InputModule.dll"
-r:"/Applications/Unity/Hub/Editor/2021.1.17f1/Unity.app/Contents/Managed/UnityEngine/UnityEngine.JSONSerializeModule.dll"
-r:"/Applications/Unity/Hub/Editor/2021.1.17f1/Unity.app/Contents/Managed/UnityEngine/UnityEngine.LocalizationModule.dll"
-r:"/Applications/Unity/Hub/Editor/2021.1.17f1/Unity.app/Contents/Managed/UnityEngine/UnityEngine.ParticleSystemModule.dll"
-r:"/Applications/Unity/Hub/Editor/2021.1.17f1/Unity.app/Contents/Managed/UnityEngine/UnityEngine.PerformanceReportingModule.dll"
-r:"/Applications/Unity/Hub/Editor/2021.1.17f1/Unity.app/Contents/Managed/UnityEngine/UnityEngine.Physics2DModule.dll"
-r:"/Applications/Unity/Hub/Editor/2021.1.17f1/Unity.app/Contents/Managed/UnityEngine/UnityEngine.PhysicsModule.dll"
-r:"/Applications/Unity/Hub/Editor/2021.1.17f1/Unity.app/Contents/Managed/UnityEngine/UnityEngine.ProfilerModule.dll"
-r:"/Applications/Unity/Hub/Editor/2021.1.17f1/Unity.app/Contents/Managed/UnityEngine/UnityEngine.RuntimeInitializeOnLoadManagerInitializerModule.dll"
-r:"/Applications/Unity/Hub/Editor/2021.1.17f1/Unity.app/Contents/Managed/UnityEngine/UnityEngine.ScreenCaptureModule.dll"
-r:"/Applications/Unity/Hub/Editor/2021.1.17f1/Unity.app/Contents/Managed/UnityEngine/UnityEngine.SharedInternalsModule.dll"
-r:"/Applications/Unity/Hub/Editor/2021.1.17f1/Unity.app/Contents/Managed/UnityEngine/UnityEngine.SpriteMaskModule.dll"
-r:"/Applications/Unity/Hub/Editor/2021.1.17f1/Unity.app/Contents/Managed/UnityEngine/UnityEngine.SpriteShapeModule.dll"
-r:"/Applications/Unity/Hub/Editor/2021.1.17f1/Unity.app/Contents/Managed/UnityEngine/UnityEngine.StreamingModule.dll"
-r:"/Applications/Unity/Hub/Editor/2021.1.17f1/Unity.app/Contents/Managed/UnityEngine/UnityEngine.SubstanceModule.dll"
-r:"/Applications/Unity/Hub/Editor/2021.1.17f1/Unity.app/Contents/Managed/UnityEngine/UnityEngine.SubsystemsModule.dll"
-r:"/Applications/Unity/Hub/Editor/2021.1.17f1/Unity.app/Contents/Managed/UnityEngine/UnityEngine.TerrainModule.dll"
-r:"/Applications/Unity/Hub/Editor/2021.1.17f1/Unity.app/Contents/Managed/UnityEngine/UnityEngine.TerrainPhysicsModule.dll"
-r:"/Applications/Unity/Hub/Editor/2021.1.17f1/Unity.app/Contents/Managed/UnityEngine/UnityEngine.TextCoreModule.dll"
-r:"/Applications/Unity/Hub/Editor/2021.1.17f1/Unity.app/Contents/Managed/UnityEngine/UnityEngine.TextRenderingModule.dll"
-r:"/Applications/Unity/Hub/Editor/2021.1.17f1/Unity.app/Contents/Managed/UnityEngine/UnityEngine.TilemapModule.dll"
-r:"/Applications/Unity/Hub/Editor/2021.1.17f1/Unity.app/Contents/Managed/UnityEngine/UnityEngine.TLSModule.dll"
-r:"/Applications/Unity/Hub/Editor/2021.1.17f1/Unity.app/Contents/Managed/UnityEngine/UnityEngine.UIElementsModule.dll"
-r:"/Applications/Unity/Hub/Editor/2021.1.17f1/Unity.app/Contents/Managed/UnityEngine/UnityEngine.UIElementsNativeModule.dll"
-r:"/Applications/Unity/Hub/Editor/2021.1.17f1/Unity.app/Contents/Managed/UnityEngine/UnityEngine.UIModule.dll"
-r:"/Applications/Unity/Hub/Editor/2021.1.17f1/Unity.app/Contents/Managed/UnityEngine/UnityEngine.UmbraModule.dll"
-r:"/Applications/Unity/Hub/Editor/2021.1.17f1/Unity.app/Contents/Managed/UnityEngine/UnityEngine.UNETModule.dll"
-r:"/Applications/Unity/Hub/Editor/2021.1.17f1/Unity.app/Contents/Managed/UnityEngine/UnityEngine.UnityAnalyticsModule.dll"
-r:"/Applications/Unity/Hub/Editor/2021.1.17f1/Unity.app/Contents/Managed/UnityEngine/UnityEngine.UnityConnectModule.dll"
-r:"/Applications/Unity/Hub/Editor/2021.1.17f1/Unity.app/Contents/Managed/UnityEngine/UnityEngine.UnityCurlModule.dll"
-r:"/Applications/Unity/Hub/Editor/2021.1.17f1/Unity.app/Contents/Managed/UnityEngine/UnityEngine.UnityTestProtocolModule.dll"
-r:"/Applications/Unity/Hub/Editor/2021.1.17f1/Unity.app/Contents/Managed/UnityEngine/UnityEngine.UnityWebRequestAssetBundleModule.dll"
-r:"/Applications/Unity/Hub/Editor/2021.1.17f1/Unity.app/Contents/Managed/UnityEngine/UnityEngine.UnityWebRequestAudioModule.dll"
-r:"/Applications/Unity/Hub/Editor/2021.1.17f1/Unity.app/Contents/Managed/UnityEngine/UnityEngine.UnityWebRequestModule.dll"
-r:"/Applications/Unity/Hub/Editor/2021.1.17f1/Unity.app/Contents/Managed/UnityEngine/UnityEngine.UnityWebRequestTextureModule.dll"
-r:"/Applications/Unity/Hub/Editor/2021.1.17f1/Unity.app/Contents/Managed/UnityEngine/UnityEngine.UnityWebRequestWWWModule.dll"
-r:"/Applications/Unity/Hub/Editor/2021.1.17f1/Unity.app/Contents/Managed/UnityEngine/UnityEngine.VehiclesModule.dll"
-r:"/Applications/Unity/Hub/Editor/2021.1.17f1/Unity.app/Contents/Managed/UnityEngine/UnityEngine.VFXModule.dll"
-r:"/Applications/Unity/Hub/Editor/2021.1.17f1/Unity.app/Contents/Managed/UnityEngine/UnityEngine.VideoModule.dll"
-r:"/Applications/Unity/Hub/Editor/2021.1.17f1/Unity.app/Contents/Managed/UnityEngine/UnityEngine.VirtualTexturingModule.dll"
-r:"/Applications/Unity/Hub/Editor/2021.1.17f1/Unity.app/Contents/Managed/UnityEngine/UnityEngine.VRModule.dll"
-r:"/Applications/Unity/Hub/Editor/2021.1.17f1/Unity.app/Contents/Managed/UnityEngine/UnityEngine.WindModule.dll"
-r:"/Applications/Unity/Hub/Editor/2021.1.17f1/Unity.app/Contents/Managed/UnityEngine/UnityEngine.XRModule.dll"
-r:"/Applications/Unity/Hub/Editor/2021.1.17f1/Unity.app/Contents/MonoBleedingEdge/lib/mono/4.7.1-api/Facades/Microsoft.Win32.Primitives.dll"
-r:"/Applications/Unity/Hub/Editor/2021.1.17f1/Unity.app/Contents/MonoBleedingEdge/lib/mono/4.7.1-api/Facades/netstandard.dll"
-r:"/Applications/Unity/Hub/Editor/2021.1.17f1/Unity.app/Contents/MonoBleedingEdge/lib/mono/4.7.1-api/Facades/System.AppContext.dll"
-r:"/Applications/Unity/Hub/Editor/2021.1.17f1/Unity.app/Contents/MonoBleedingEdge/lib/mono/4.7.1-api/Facades/System.Collections.Concurrent.dll"
-r:"/Applications/Unity/Hub/Editor/2021.1.17f1/Unity.app/Contents/MonoBleedingEdge/lib/mono/4.7.1-api/Facades/System.Collections.dll"
-r:"/Applications/Unity/Hub/Editor/2021.1.17f1/Unity.app/Contents/MonoBleedingEdge/lib/mono/4.7.1-api/Facades/System.Collections.NonGeneric.dll"
-r:"/Applications/Unity/Hub/Editor/2021.1.17f1/Unity.app/Contents/MonoBleedingEdge/lib/mono/4.7.1-api/Facades/System.Collections.Specialized.dll"
-r:"/Applications/Unity/Hub/Editor/2021.1.17f1/Unity.app/Contents/MonoBleedingEdge/lib/mono/4.7.1-api/Facades/System.ComponentModel.Annotations.dll"
-r:"/Applications/Unity/Hub/Editor/2021.1.17f1/Unity.app/Contents/MonoBleedingEdge/lib/mono/4.7.1-api/Facades/System.ComponentModel.dll"
-r:"/Applications/Unity/Hub/Editor/2021.1.17f1/Unity.app/Contents/MonoBleedingEdge/lib/mono/4.7.1-api/Facades/System.ComponentModel.EventBasedAsync.dll"
-r:"/Applications/Unity/Hub/Editor/2021.1.17f1/Unity.app/Contents/MonoBleedingEdge/lib/mono/4.7.1-api/Facades/System.ComponentModel.Primitives.dll"
-r:"/Applications/Unity/Hub/Editor/2021.1.17f1/Unity.app/Contents/MonoBleedingEdge/lib/mono/4.7.1-api/Facades/System.ComponentModel.TypeConverter.dll"
-r:"/Applications/Unity/Hub/Editor/2021.1.17f1/Unity.app/Contents/MonoBleedingEdge/lib/mono/4.7.1-api/Facades/System.Console.dll"
-r:"/Applications/Unity/Hub/Editor/2021.1.17f1/Unity.app/Contents/MonoBleedingEdge/lib/mono/4.7.1-api/Facades/System.Data.Common.dll"
-r:"/Applications/Unity/Hub/Editor/2021.1.17f1/Unity.app/Contents/MonoBleedingEdge/lib/mono/4.7.1-api/Facades/System.Diagnostics.Contracts.dll"
-r:"/Applications/Unity/Hub/Editor/2021.1.17f1/Unity.app/Contents/MonoBleedingEdge/lib/mono/4.7.1-api/Facades/System.Diagnostics.Debug.dll"
-r:"/Applications/Unity/Hub/Editor/2021.1.17f1/Unity.app/Contents/MonoBleedingEdge/lib/mono/4.7.1-api/Facades/System.Diagnostics.FileVersionInfo.dll"
-r:"/Applications/Unity/Hub/Editor/2021.1.17f1/Unity.app/Contents/MonoBleedingEdge/lib/mono/4.7.1-api/Facades/System.Diagnostics.Process.dll"
-r:"/Applications/Unity/Hub/Editor/2021.1.17f1/Unity.app/Contents/MonoBleedingEdge/lib/mono/4.7.1-api/Facades/System.Diagnostics.StackTrace.dll"
-r:"/Applications/Unity/Hub/Editor/2021.1.17f1/Unity.app/Contents/MonoBleedingEdge/lib/mono/4.7.1-api/Facades/System.Diagnostics.TextWriterTraceListener.dll"
-r:"/Applications/Unity/Hub/Editor/2021.1.17f1/Unity.app/Contents/MonoBleedingEdge/lib/mono/4.7.1-api/Facades/System.Diagnostics.Tools.dll"
-r:"/Applications/Unity/Hub/Editor/2021.1.17f1/Unity.app/Contents/MonoBleedingEdge/lib/mono/4.7.1-api/Facades/System.Diagnostics.TraceSource.dll"
-r:"/Applications/Unity/Hub/Editor/2021.1.17f1/Unity.app/Contents/MonoBleedingEdge/lib/mono/4.7.1-api/Facades/System.Drawing.Primitives.dll"
-r:"/Applications/Unity/Hub/Editor/2021.1.17f1/Unity.app/Contents/MonoBleedingEdge/lib/mono/4.7.1-api/Facades/System.Dynamic.Runtime.dll"
-r:"/Applications/Unity/Hub/Editor/2021.1.17f1/Unity.app/Contents/MonoBleedingEdge/lib/mono/4.7.1-api/Facades/System.Globalization.Calendars.dll"
-r:"/Applications/Unity/Hub/Editor/2021.1.17f1/Unity.app/Contents/MonoBleedingEdge/lib/mono/4.7.1-api/Facades/System.Globalization.dll"
-r:"/Applications/Unity/Hub/Editor/2021.1.17f1/Unity.app/Contents/MonoBleedingEdge/lib/mono/4.7.1-api/Facades/System.Globalization.Extensions.dll"
-r:"/Applications/Unity/Hub/Editor/2021.1.17f1/Unity.app/Contents/MonoBleedingEdge/lib/mono/4.7.1-api/Facades/System.IO.Compression.ZipFile.dll"
-r:"/Applications/Unity/Hub/Editor/2021.1.17f1/Unity.app/Contents/MonoBleedingEdge/lib/mono/4.7.1-api/Facades/System.IO.dll"
-r:"/Applications/Unity/Hub/Editor/2021.1.17f1/Unity.app/Contents/MonoBleedingEdge/lib/mono/4.7.1-api/Facades/System.IO.FileSystem.dll"
-r:"/Applications/Unity/Hub/Editor/2021.1.17f1/Unity.app/Contents/MonoBleedingEdge/lib/mono/4.7.1-api/Facades/System.IO.FileSystem.DriveInfo.dll"
-r:"/Applications/Unity/Hub/Editor/2021.1.17f1/Unity.app/Contents/MonoBleedingEdge/lib/mono/4.7.1-api/Facades/System.IO.FileSystem.Primitives.dll"
-r:"/Applications/Unity/Hub/Editor/2021.1.17f1/Unity.app/Contents/MonoBleedingEdge/lib/mono/4.7.1-api/Facades/System.IO.FileSystem.Watcher.dll"
-r:"/Applications/Unity/Hub/Editor/2021.1.17f1/Unity.app/Contents/MonoBleedingEdge/lib/mono/4.7.1-api/Facades/System.IO.IsolatedStorage.dll"
-r:"/Applications/Unity/Hub/Editor/2021.1.17f1/Unity.app/Contents/MonoBleedingEdge/lib/mono/4.7.1-api/Facades/System.IO.MemoryMappedFiles.dll"
-r:"/Applications/Unity/Hub/Editor/2021.1.17f1/Unity.app/Contents/MonoBleedingEdge/lib/mono/4.7.1-api/Facades/System.IO.Pipes.dll"
-r:"/Applications/Unity/Hub/Editor/2021.1.17f1/Unity.app/Contents/MonoBleedingEdge/lib/mono/4.7.1-api/Facades/System.IO.UnmanagedMemoryStream.dll"
-r:"/Applications/Unity/Hub/Editor/2021.1.17f1/Unity.app/Contents/MonoBleedingEdge/lib/mono/4.7.1-api/Facades/System.Linq.dll"
-r:"/Applications/Unity/Hub/Editor/2021.1.17f1/Unity.app/Contents/MonoBleedingEdge/lib/mono/4.7.1-api/Facades/System.Linq.Expressions.dll"
-r:"/Applications/Unity/Hub/Editor/2021.1.17f1/Unity.app/Contents/MonoBleedingEdge/lib/mono/4.7.1-api/Facades/System.Linq.Parallel.dll"
-r:"/Applications/Unity/Hub/Editor/2021.1.17f1/Unity.app/Contents/MonoBleedingEdge/lib/mono/4.7.1-api/Facades/System.Linq.Queryable.dll"
-r:"/Applications/Unity/Hub/Editor/2021.1.17f1/Unity.app/Contents/MonoBleedingEdge/lib/mono/4.7.1-api/Facades/System.Net.Http.Rtc.dll"
-r:"/Applications/Unity/Hub/Editor/2021.1.17f1/Unity.app/Contents/MonoBleedingEdge/lib/mono/4.7.1-api/Facades/System.Net.NameResolution.dll"
-r:"/Applications/Unity/Hub/Editor/2021.1.17f1/Unity.app/Contents/MonoBleedingEdge/lib/mono/4.7.1-api/Facades/System.Net.NetworkInformation.dll"
-r:"/Applications/Unity/Hub/Editor/2021.1.17f1/Unity.app/Contents/MonoBleedingEdge/lib/mono/4.7.1-api/Facades/System.Net.Ping.dll"
-r:"/Applications/Unity/Hub/Editor/2021.1.17f1/Unity.app/Contents/MonoBleedingEdge/lib/mono/4.7.1-api/Facades/System.Net.Primitives.dll"
-r:"/Applications/Unity/Hub/Editor/2021.1.17f1/Unity.app/Contents/MonoBleedingEdge/lib/mono/4.7.1-api/Facades/System.Net.Requests.dll"
-r:"/Applications/Unity/Hub/Editor/2021.1.17f1/Unity.app/Contents/MonoBleedingEdge/lib/mono/4.7.1-api/Facades/System.Net.Security.dll"
-r:"/Applications/Unity/Hub/Editor/2021.1.17f1/Unity.app/Contents/MonoBleedingEdge/lib/mono/4.7.1-api/Facades/System.Net.Sockets.dll"
-r:"/Applications/Unity/Hub/Editor/2021.1.17f1/Unity.app/Contents/MonoBleedingEdge/lib/mono/4.7.1-api/Facades/System.Net.WebHeaderCollection.dll"
-r:"/Applications/Unity/Hub/Editor/2021.1.17f1/Unity.app/Contents/MonoBleedingEdge/lib/mono/4.7.1-api/Facades/System.Net.WebSockets.Client.dll"
-r:"/Applications/Unity/Hub/Editor/2021.1.17f1/Unity.app/Contents/MonoBleedingEdge/lib/mono/4.7.1-api/Facades/System.Net.WebSockets.dll"
-r:"/Applications/Unity/Hub/Editor/2021.1.17f1/Unity.app/Contents/MonoBleedingEdge/lib/mono/4.7.1-api/Facades/System.ObjectModel.dll"
-r:"/Applications/Unity/Hub/Editor/2021.1.17f1/Unity.app/Contents/MonoBleedingEdge/lib/mono/4.7.1-api/Facades/System.Reflection.dll"
-r:"/Applications/Unity/Hub/Editor/2021.1.17f1/Unity.app/Contents/MonoBleedingEdge/lib/mono/4.7.1-api/Facades/System.Reflection.Emit.dll"
-r:"/Applications/Unity/Hub/Editor/2021.1.17f1/Unity.app/Contents/MonoBleedingEdge/lib/mono/4.7.1-api/Facades/System.Reflection.Emit.ILGeneration.dll"
-r:"/Applications/Unity/Hub/Editor/2021.1.17f1/Unity.app/Contents/MonoBleedingEdge/lib/mono/4.7.1-api/Facades/System.Reflection.Emit.Lightweight.dll"
-r:"/Applications/Unity/Hub/Editor/2021.1.17f1/Unity.app/Contents/MonoBleedingEdge/lib/mono/4.7.1-api/Facades/System.Reflection.Extensions.dll"
-r:"/Applications/Unity/Hub/Editor/2021.1.17f1/Unity.app/Contents/MonoBleedingEdge/lib/mono/4.7.1-api/Facades/System.Reflection.Primitives.dll"
-r:"/Applications/Unity/Hub/Editor/2021.1.17f1/Unity.app/Contents/MonoBleedingEdge/lib/mono/4.7.1-api/Facades/System.Resources.Reader.dll"
-r:"/Applications/Unity/Hub/Editor/2021.1.17f1/Unity.app/Contents/MonoBleedingEdge/lib/mono/4.7.1-api/Facades/System.Resources.ResourceManager.dll"
-r:"/Applications/Unity/Hub/Editor/2021.1.17f1/Unity.app/Contents/MonoBleedingEdge/lib/mono/4.7.1-api/Facades/System.Resources.Writer.dll"
-r:"/Applications/Unity/Hub/Editor/2021.1.17f1/Unity.app/Contents/MonoBleedingEdge/lib/mono/4.7.1-api/Facades/System.Runtime.CompilerServices.VisualC.dll"
-r:"/Applications/Unity/Hub/Editor/2021.1.17f1/Unity.app/Contents/MonoBleedingEdge/lib/mono/4.7.1-api/Facades/System.Runtime.dll"
-r:"/Applications/Unity/Hub/Editor/2021.1.17f1/Unity.app/Contents/MonoBleedingEdge/lib/mono/4.7.1-api/Facades/System.Runtime.Extensions.dll"
-r:"/Applications/Unity/Hub/Editor/2021.1.17f1/Unity.app/Contents/MonoBleedingEdge/lib/mono/4.7.1-api/Facades/System.Runtime.Handles.dll"
-r:"/Applications/Unity/Hub/Editor/2021.1.17f1/Unity.app/Contents/MonoBleedingEdge/lib/mono/4.7.1-api/Facades/System.Runtime.InteropServices.dll"
-r:"/Applications/Unity/Hub/Editor/2021.1.17f1/Unity.app/Contents/MonoBleedingEdge/lib/mono/4.7.1-api/Facades/System.Runtime.InteropServices.RuntimeInformation.dll"
-r:"/Applications/Unity/Hub/Editor/2021.1.17f1/Unity.app/Contents/MonoBleedingEdge/lib/mono/4.7.1-api/Facades/System.Runtime.InteropServices.WindowsRuntime.dll"
-r:"/Applications/Unity/Hub/Editor/2021.1.17f1/Unity.app/Contents/MonoBleedingEdge/lib/mono/4.7.1-api/Facades/System.Runtime.Numerics.dll"
-r:"/Applications/Unity/Hub/Editor/2021.1.17f1/Unity.app/Contents/MonoBleedingEdge/lib/mono/4.7.1-api/Facades/System.Runtime.Serialization.Formatters.dll"
-r:"/Applications/Unity/Hub/Editor/2021.1.17f1/Unity.app/Contents/MonoBleedingEdge/lib/mono/4.7.1-api/Facades/System.Runtime.Serialization.Json.dll"
-r:"/Applications/Unity/Hub/Editor/2021.1.17f1/Unity.app/Contents/MonoBleedingEdge/lib/mono/4.7.1-api/Facades/System.Runtime.Serialization.Primitives.dll"
-r:"/Applications/Unity/Hub/Editor/2021.1.17f1/Unity.app/Contents/MonoBleedingEdge/lib/mono/4.7.1-api/Facades/System.Runtime.Serialization.Xml.dll"
-r:"/Applications/Unity/Hub/Editor/2021.1.17f1/Unity.app/Contents/MonoBleedingEdge/lib/mono/4.7.1-api/Facades/System.Security.Claims.dll"
-r:"/Applications/Unity/Hub/Editor/2021.1.17f1/Unity.app/Contents/MonoBleedingEdge/lib/mono/4.7.1-api/Facades/System.Security.Cryptography.Algorithms.dll"
-r:"/Applications/Unity/Hub/Editor/2021.1.17f1/Unity.app/Contents/MonoBleedingEdge/lib/mono/4.7.1-api/Facades/System.Security.Cryptography.Csp.dll"
-r:"/Applications/Unity/Hub/Editor/2021.1.17f1/Unity.app/Contents/MonoBleedingEdge/lib/mono/4.7.1-api/Facades/System.Security.Cryptography.Encoding.dll"
-r:"/Applications/Unity/Hub/Editor/2021.1.17f1/Unity.app/Contents/MonoBleedingEdge/lib/mono/4.7.1-api/Facades/System.Security.Cryptography.Primitives.dll"
-r:"/Applications/Unity/Hub/Editor/2021.1.17f1/Unity.app/Contents/MonoBleedingEdge/lib/mono/4.7.1-api/Facades/System.Security.Cryptography.X509Certificates.dll"
-r:"/Applications/Unity/Hub/Editor/2021.1.17f1/Unity.app/Contents/MonoBleedingEdge/lib/mono/4.7.1-api/Facades/System.Security.Principal.dll"
-r:"/Applications/Unity/Hub/Editor/2021.1.17f1/Unity.app/Contents/MonoBleedingEdge/lib/mono/4.7.1-api/Facades/System.Security.SecureString.dll"
-r:"/Applications/Unity/Hub/Editor/2021.1.17f1/Unity.app/Contents/MonoBleedingEdge/lib/mono/4.7.1-api/Facades/System.ServiceModel.Duplex.dll"
-r:"/Applications/Unity/Hub/Editor/2021.1.17f1/Unity.app/Contents/MonoBleedingEdge/lib/mono/4.7.1-api/Facades/System.ServiceModel.Http.dll"
-r:"/Applications/Unity/Hub/Editor/2021.1.17f1/Unity.app/Contents/MonoBleedingEdge/lib/mono/4.7.1-api/Facades/System.ServiceModel.NetTcp.dll"
-r:"/Applications/Unity/Hub/Editor/2021.1.17f1/Unity.app/Contents/MonoBleedingEdge/lib/mono/4.7.1-api/Facades/System.ServiceModel.Primitives.dll"
-r:"/Applications/Unity/Hub/Editor/2021.1.17f1/Unity.app/Contents/MonoBleedingEdge/lib/mono/4.7.1-api/Facades/System.ServiceModel.Security.dll"
-r:"/Applications/Unity/Hub/Editor/2021.1.17f1/Unity.app/Contents/MonoBleedingEdge/lib/mono/4.7.1-api/Facades/System.Text.Encoding.dll"
-r:"/Applications/Unity/Hub/Editor/2021.1.17f1/Unity.app/Contents/MonoBleedingEdge/lib/mono/4.7.1-api/Facades/System.Text.Encoding.Extensions.dll"
-r:"/Applications/Unity/Hub/Editor/2021.1.17f1/Unity.app/Contents/MonoBleedingEdge/lib/mono/4.7.1-api/Facades/System.Text.RegularExpressions.dll"
-r:"/Applications/Unity/Hub/Editor/2021.1.17f1/Unity.app/Contents/MonoBleedingEdge/lib/mono/4.7.1-api/Facades/System.Threading.dll"
-r:"/Applications/Unity/Hub/Editor/2021.1.17f1/Unity.app/Contents/MonoBleedingEdge/lib/mono/4.7.1-api/Facades/System.Threading.Overlapped.dll"
-r:"/Applications/Unity/Hub/Editor/2021.1.17f1/Unity.app/Contents/MonoBleedingEdge/lib/mono/4.7.1-api/Facades/System.Threading.Tasks.dll"
-r:"/Applications/Unity/Hub/Editor/2021.1.17f1/Unity.app/Contents/MonoBleedingEdge/lib/mono/4.7.1-api/Facades/System.Threading.Tasks.Parallel.dll"
-r:"/Applications/Unity/Hub/Editor/2021.1.17f1/Unity.app/Contents/MonoBleedingEdge/lib/mono/4.7.1-api/Facades/System.Threading.Thread.dll"
-r:"/Applications/Unity/Hub/Editor/2021.1.17f1/Unity.app/Contents/MonoBleedingEdge/lib/mono/4.7.1-api/Facades/System.Threading.ThreadPool.dll"
-r:"/Applications/Unity/Hub/Editor/2021.1.17f1/Unity.app/Contents/MonoBleedingEdge/lib/mono/4.7.1-api/Facades/System.Threading.Timer.dll"
-r:"/Applications/Unity/Hub/Editor/2021.1.17f1/Unity.app/Contents/MonoBleedingEdge/lib/mono/4.7.1-api/Facades/System.ValueTuple.dll"
-r:"/Applications/Unity/Hub/Editor/2021.1.17f1/Unity.app/Contents/MonoBleedingEdge/lib/mono/4.7.1-api/Facades/System.Xml.ReaderWriter.dll"
-r:"/Applications/Unity/Hub/Editor/2021.1.17f1/Unity.app/Contents/MonoBleedingEdge/lib/mono/4.7.1-api/Facades/System.Xml.XDocument.dll"
-r:"/Applications/Unity/Hub/Editor/2021.1.17f1/Unity.app/Contents/MonoBleedingEdge/lib/mono/4.7.1-api/Facades/System.Xml.XmlDocument.dll"
-r:"/Applications/Unity/Hub/Editor/2021.1.17f1/Unity.app/Contents/MonoBleedingEdge/lib/mono/4.7.1-api/Facades/System.Xml.XmlSerializer.dll"
-r:"/Applications/Unity/Hub/Editor/2021.1.17f1/Unity.app/Contents/MonoBleedingEdge/lib/mono/4.7.1-api/Facades/System.Xml.XPath.dll"
-r:"/Applications/Unity/Hub/Editor/2021.1.17f1/Unity.app/Contents/MonoBleedingEdge/lib/mono/4.7.1-api/Facades/System.Xml.XPath.XDocument.dll"
-r:"/Applications/Unity/Hub/Editor/2021.1.17f1/Unity.app/Contents/MonoBleedingEdge/lib/mono/4.7.1-api/Microsoft.CSharp.dll"
-r:"/Applications/Unity/Hub/Editor/2021.1.17f1/Unity.app/Contents/MonoBleedingEdge/lib/mono/4.7.1-api/mscorlib.dll"
-r:"/Applications/Unity/Hub/Editor/2021.1.17f1/Unity.app/Contents/MonoBleedingEdge/lib/mono/4.7.1-api/System.Core.dll"
-r:"/Applications/Unity/Hub/Editor/2021.1.17f1/Unity.app/Contents/MonoBleedingEdge/lib/mono/4.7.1-api/System.Data.dll"
-r:"/Applications/Unity/Hub/Editor/2021.1.17f1/Unity.app/Contents/MonoBleedingEdge/lib/mono/4.7.1-api/System.dll"
-r:"/Applications/Unity/Hub/Editor/2021.1.17f1/Unity.app/Contents/MonoBleedingEdge/lib/mono/4.7.1-api/System.IO.Compression.dll"
-r:"/Applications/Unity/Hub/Editor/2021.1.17f1/Unity.app/Contents/MonoBleedingEdge/lib/mono/4.7.1-api/System.Net.Http.dll"
-r:"/Applications/Unity/Hub/Editor/2021.1.17f1/Unity.app/Contents/MonoBleedingEdge/lib/mono/4.7.1-api/System.Numerics.dll"
-r:"/Applications/Unity/Hub/Editor/2021.1.17f1/Unity.app/Contents/MonoBleedingEdge/lib/mono/4.7.1-api/System.Numerics.Vectors.dll"
-r:"/Applications/Unity/Hub/Editor/2021.1.17f1/Unity.app/Contents/MonoBleedingEdge/lib/mono/4.7.1-api/System.Runtime.Serialization.dll"
-r:"/Applications/Unity/Hub/Editor/2021.1.17f1/Unity.app/Contents/MonoBleedingEdge/lib/mono/4.7.1-api/System.Xml.dll"
-r:"/Applications/Unity/Hub/Editor/2021.1.17f1/Unity.app/Contents/MonoBleedingEdge/lib/mono/4.7.1-api/System.Xml.Linq.dll"
-r:"/Applications/Unity/Hub/Editor/2021.1.17f1/Unity.app/Contents/PlaybackEngines/MacStandaloneSupport/UnityEditor.OSXStandalone.Extensions.dll"
-r:"/Users/maddiecole/finalproject/Final Game Project/Library/PackageCache/com.unity.cinemachine@2.7.4/Runtime/ThirdParty/clipper_library.dll"
-r:"/Users/maddiecole/finalproject/Final Game Project/Library/PackageCache/com.unity.collab-proxy@1.7.1/Lib/Editor/PlasticSCM/log4netPlastic.dll"
-r:"/Users/maddiecole/finalproject/Final Game Project/Library/PackageCache/com.unity.collab-proxy@1.7.1/Lib/Editor/PlasticSCM/Unity.Plastic.Antlr3.Runtime.dll"
-r:"/Users/maddiecole/finalproject/Final Game Project/Library/PackageCache/com.unity.collab-proxy@1.7.1/Lib/Editor/PlasticSCM/unityplastic.dll"
-r:"/Users/maddiecole/finalproject/Final Game Project/Library/PackageCache/com.unity.ext.nunit@1.0.6/net35/unity-custom/nunit.framework.dll"
-r:"/Users/maddiecole/finalproject/Final Game Project/Library/PackageCache/com.unity.nuget.newtonsoft-json@2.0.0/Runtime/Newtonsoft.Json.dll"
-r:"/Users/maddiecole/finalproject/Final Game Project/Library/PackageCache/com.unity.visualscripting@1.6.1/Editor/VisualScripting.Core/Dependencies/DotNetZip/Unity.VisualScripting.IonicZip.dll"
-r:"/Users/maddiecole/finalproject/Final Game Project/Library/PackageCache/com.unity.visualscripting@1.6.1/Editor/VisualScripting.Core/Dependencies/YamlDotNet/Unity.VisualScripting.YamlDotNet.dll"
-r:"/Users/maddiecole/finalproject/Final Game Project/Library/PackageCache/com.unity.visualscripting@1.6.1/Runtime/VisualScripting.Flow/Dependencies/NCalc/Unity.VisualScripting.Antlr3.Runtime.dll"
-r:"Library/Bee/artifacts/200b0aE.dag/Unity.RenderPipelines.HighDefinition.Runtime.ref.dll"
-r:"Library/Bee/artifacts/200b0aE.dag/Unity.ShaderGraph.Editor.ref.dll"
-r:"Library/Bee/artifacts/200b0aE.dag/Unity.Timeline.ref.dll"
-r:"Library/Bee/artifacts/200b0aE.dag/Unity.VisualEffectGraph.Runtime.ref.dll"
-r:"Library/Bee/artifacts/200b0aE.dag/UnityEditor.TestRunner.ref.dll"
-r:"Library/Bee/artifacts/200b0aE.dag/UnityEditor.UI.ref.dll"
-r:"Library/Bee/artifacts/200b0aE.dag/UnityEngine.TestRunner.ref.dll"
-r:"Library/Bee/artifacts/200b0aE.dag/UnityEngine.UI.ref.dll"
"Library/PackageCache/com.unity.visualeffectgraph@11.0.0/Editor/Compiler/VFXCodeGenerator.cs"
"Library/PackageCache/com.unity.visualeffectgraph@11.0.0/Editor/Compiler/VFXExpressionGraph.cs"
"Library/PackageCache/com.unity.visualeffectgraph@11.0.0/Editor/Compiler/VFXExpressionMapper.cs"
"Library/PackageCache/com.unity.visualeffectgraph@11.0.0/Editor/Compiler/VFXGraphCompiledData.cs"
"Library/PackageCache/com.unity.visualeffectgraph@11.0.0/Editor/Compiler/VFXShaderWriter.cs"
"Library/PackageCache/com.unity.visualeffectgraph@11.0.0/Editor/Compiler/VFXUniformMapper.cs"
"Library/PackageCache/com.unity.visualeffectgraph@11.0.0/Editor/Controls/Element3D.cs"
"Library/PackageCache/com.unity.visualeffectgraph@11.0.0/Editor/Controls/VFXBitField.cs"
"Library/PackageCache/com.unity.visualeffectgraph@11.0.0/Editor/Controls/VFXColorField.cs"
"Library/PackageCache/com.unity.visualeffectgraph@11.0.0/Editor/Controls/VFXControl.cs"
"Library/PackageCache/com.unity.visualeffectgraph@11.0.0/Editor/Controls/VFXEnumField.cs"
"Library/PackageCache/com.unity.visualeffectgraph@11.0.0/Editor/Controls/VFXEnumValuePopup.cs"
"Library/PackageCache/com.unity.visualeffectgraph@11.0.0/Editor/Controls/VFXFlipBookField.cs"
"Library/PackageCache/com.unity.visualeffectgraph@11.0.0/Editor/Controls/VFXLabeledField.cs"
"Library/PackageCache/com.unity.visualeffectgraph@11.0.0/Editor/Controls/VFXMatrix4x4Field.cs"
"Library/PackageCache/com.unity.visualeffectgraph@11.0.0/Editor/Controls/VFXReorderableList.cs"
"Library/PackageCache/com.unity.visualeffectgraph@11.0.0/Editor/Controls/VFXSliderField.cs"
"Library/PackageCache/com.unity.visualeffectgraph@11.0.0/Editor/Controls/VFXStringField.cs"
"Library/PackageCache/com.unity.visualeffectgraph@11.0.0/Editor/Controls/VFXStringFieldProvider.cs"
"Library/PackageCache/com.unity.visualeffectgraph@11.0.0/Editor/Controls/VFXStringFieldPushButton.cs"
"Library/PackageCache/com.unity.visualeffectgraph@11.0.0/Editor/Controls/VFXVector2Field.cs"
"Library/PackageCache/com.unity.visualeffectgraph@11.0.0/Editor/Controls/VFXVector3Field.cs"
"Library/PackageCache/com.unity.visualeffectgraph@11.0.0/Editor/Controls/VFXVector4Field.cs"
"Library/PackageCache/com.unity.visualeffectgraph@11.0.0/Editor/Core/VFXConverter.cs"
"Library/PackageCache/com.unity.visualeffectgraph@11.0.0/Editor/Core/VFXEnums.cs"
"Library/PackageCache/com.unity.visualeffectgraph@11.0.0/Editor/Core/VFXLibrary.cs"
"Library/PackageCache/com.unity.visualeffectgraph@11.0.0/Editor/Core/VFXSerializer.cs"
"Library/PackageCache/com.unity.visualeffectgraph@11.0.0/Editor/Core/VFXSettingAttribute.cs"
"Library/PackageCache/com.unity.visualeffectgraph@11.0.0/Editor/Data/VFXData.cs"
"Library/PackageCache/com.unity.visualeffectgraph@11.0.0/Editor/Data/VFXDataMesh.cs"
"Library/PackageCache/com.unity.visualeffectgraph@11.0.0/Editor/Data/VFXDataOutputEvent.cs"
"Library/PackageCache/com.unity.visualeffectgraph@11.0.0/Editor/Data/VFXDataParticle.cs"
"Library/PackageCache/com.unity.visualeffectgraph@11.0.0/Editor/Data/VFXDataSpawner.cs"
"Library/PackageCache/com.unity.visualeffectgraph@11.0.0/Editor/Debug/DotGraphOutput.cs"
"Library/PackageCache/com.unity.visualeffectgraph@11.0.0/Editor/Debug/VFXUIDebug.cs"
"Library/PackageCache/com.unity.visualeffectgraph@11.0.0/Editor/Expressions/VFXAttributeExpression.cs"
"Library/PackageCache/com.unity.visualeffectgraph@11.0.0/Editor/Expressions/VFXBuiltInExpression.cs"
"Library/PackageCache/com.unity.visualeffectgraph@11.0.0/Editor/Expressions/VFXExpressionAbstract.cs"
"Library/PackageCache/com.unity.visualeffectgraph@11.0.0/Editor/Expressions/VFXExpressionAbstractBoolOperation.cs"
"Library/PackageCache/com.unity.visualeffectgraph@11.0.0/Editor/Expressions/VFXExpressionAbstractFloatOperation.cs"
"Library/PackageCache/com.unity.visualeffectgraph@11.0.0/Editor/Expressions/VFXExpressionAbstractNumericOperation.cs"
"Library/PackageCache/com.unity.visualeffectgraph@11.0.0/Editor/Expressions/VFXExpressionAbstractUintOperation.cs"
"Library/PackageCache/com.unity.visualeffectgraph@11.0.0/Editor/Expressions/VFXExpressionAbstractValues.cs"
"Library/PackageCache/com.unity.visualeffectgraph@11.0.0/Editor/Expressions/VFXExpressionBakeCurve.cs"
"Library/PackageCache/com.unity.visualeffectgraph@11.0.0/Editor/Expressions/VFXExpressionBakeGradient.cs"
"Library/PackageCache/com.unity.visualeffectgraph@11.0.0/Editor/Expressions/VFXExpressionCamera.cs"
"Library/PackageCache/com.unity.visualeffectgraph@11.0.0/Editor/Expressions/VFXExpressionCast.cs"
"Library/PackageCache/com.unity.visualeffectgraph@11.0.0/Editor/Expressions/VFXExpressionColor.cs"
"Library/PackageCache/com.unity.visualeffectgraph@11.0.0/Editor/Expressions/VFXExpressionCombine.cs"
"Library/PackageCache/com.unity.visualeffectgraph@11.0.0/Editor/Expressions/VFXExpressionContext.cs"
"Library/PackageCache/com.unity.visualeffectgraph@11.0.0/Editor/Expressions/VFXExpressionExtractComponent.cs"
"Library/PackageCache/com.unity.visualeffectgraph@11.0.0/Editor/Expressions/VFXExpressionFlow.cs"
"Library/PackageCache/com.unity.visualeffectgraph@11.0.0/Editor/Expressions/VFXExpressionLoadTexture.cs"
"Library/PackageCache/com.unity.visualeffectgraph@11.0.0/Editor/Expressions/VFXExpressionMath.cs"
"Library/PackageCache/com.unity.visualeffectgraph@11.0.0/Editor/Expressions/VFXExpressionMesh.cs"
"Library/PackageCache/com.unity.visualeffectgraph@11.0.0/Editor/Expressions/VFXExpressionNoise.cs"
"Library/PackageCache/com.unity.visualeffectgraph@11.0.0/Editor/Expressions/VFXExpressionRandom.cs"
"Library/PackageCache/com.unity.visualeffectgraph@11.0.0/Editor/Expressions/VFXExpressionSampleAttributeMap.cs"
"Library/PackageCache/com.unity.visualeffectgraph@11.0.0/Editor/Expressions/VFXExpressionSampleCurve.cs"
"Library/PackageCache/com.unity.visualeffectgraph@11.0.0/Editor/Expressions/VFXExpressionSampleGradient.cs"
"Library/PackageCache/com.unity.visualeffectgraph@11.0.0/Editor/Expressions/VFXExpressionSampleSDF.cs"
"Library/PackageCache/com.unity.visualeffectgraph@11.0.0/Editor/Expressions/VFXExpressionSampleTexture2D.cs"
"Library/PackageCache/com.unity.visualeffectgraph@11.0.0/Editor/Expressions/VFXExpressionSampleTexture2DArray.cs"
"Library/PackageCache/com.unity.visualeffectgraph@11.0.0/Editor/Expressions/VFXExpressionSampleTexture3D.cs"
"Library/PackageCache/com.unity.visualeffectgraph@11.0.0/Editor/Expressions/VFXExpressionSampleTextureCube.cs"
"Library/PackageCache/com.unity.visualeffectgraph@11.0.0/Editor/Expressions/VFXExpressionSampleTextureCubeArray.cs"
"Library/PackageCache/com.unity.visualeffectgraph@11.0.0/Editor/Expressions/VFXExpressionSpawnerState.cs"
"Library/PackageCache/com.unity.visualeffectgraph@11.0.0/Editor/Expressions/VFXExpressionStrips.cs"
"Library/PackageCache/com.unity.visualeffectgraph@11.0.0/Editor/Expressions/VFXExpressionTextureDim.cs"
"Library/PackageCache/com.unity.visualeffectgraph@11.0.0/Editor/Expressions/VFXExpressionTextureValues.cs"
"Library/PackageCache/com.unity.visualeffectgraph@11.0.0/Editor/Expressions/VFXExpressionTransform.cs"
"Library/PackageCache/com.unity.visualeffectgraph@11.0.0/Editor/FilterPopup/VFXBlockProvider.cs"
"Library/PackageCache/com.unity.visualeffectgraph@11.0.0/Editor/FilterPopup/VFXFilterWindow.cs"
"Library/PackageCache/com.unity.visualeffectgraph@11.0.0/Editor/Gizmo/VFXGizmo.cs"
"Library/PackageCache/com.unity.visualeffectgraph@11.0.0/Editor/Gizmo/VFXGizmoUtility.cs"
"Library/PackageCache/com.unity.visualeffectgraph@11.0.0/Editor/GraphView/Blackboard/VFXBlackboard.cs"
"Library/PackageCache/com.unity.visualeffectgraph@11.0.0/Editor/GraphView/Blackboard/VFXBlackboardCategory.cs"
"Library/PackageCache/com.unity.visualeffectgraph@11.0.0/Editor/GraphView/Blackboard/VFXBlackboardField.cs"
"Library/PackageCache/com.unity.visualeffectgraph@11.0.0/Editor/GraphView/Blackboard/VFXBlackboardPropertyView.cs"
"Library/PackageCache/com.unity.visualeffectgraph@11.0.0/Editor/GraphView/Blackboard/VFXBlackboardRow.cs"
"Library/PackageCache/com.unity.visualeffectgraph@11.0.0/Editor/GraphView/Controllers/Controller.cs"
"Library/PackageCache/com.unity.visualeffectgraph@11.0.0/Editor/GraphView/Controllers/IControlledElement.cs"
"Library/PackageCache/com.unity.visualeffectgraph@11.0.0/Editor/GraphView/Elements/3D/Preview3D.cs"
"Library/PackageCache/com.unity.visualeffectgraph@11.0.0/Editor/GraphView/Elements/3D/Rotate3DManipulator.cs"
"Library/PackageCache/com.unity.visualeffectgraph@11.0.0/Editor/GraphView/Elements/Controllers/VFXBlockController.cs"
"Library/PackageCache/com.unity.visualeffectgraph@11.0.0/Editor/GraphView/Elements/Controllers/VFXContextController.cs"
"Library/PackageCache/com.unity.visualeffectgraph@11.0.0/Editor/GraphView/Elements/Controllers/VFXContextDataAnchorController.cs"
"Library/PackageCache/com.unity.visualeffectgraph@11.0.0/Editor/GraphView/Elements/Controllers/VFXDataAnchorController.cs"
"Library/PackageCache/com.unity.visualeffectgraph@11.0.0/Editor/GraphView/Elements/Controllers/VFXDataEdgeController.cs"
"Library/PackageCache/com.unity.visualeffectgraph@11.0.0/Editor/GraphView/Elements/Controllers/VFXFlowAnchorController.cs"
"Library/PackageCache/com.unity.visualeffectgraph@11.0.0/Editor/GraphView/Elements/Controllers/VFXFlowEdgeController.cs"
"Library/PackageCache/com.unity.visualeffectgraph@11.0.0/Editor/GraphView/Elements/Controllers/VFXGroupNodeController.cs"
"Library/PackageCache/com.unity.visualeffectgraph@11.0.0/Editor/GraphView/Elements/Controllers/VFXNodeController.cs"
"Library/PackageCache/com.unity.visualeffectgraph@11.0.0/Editor/GraphView/Elements/Controllers/VFXOperatorAnchorController.cs"
"Library/PackageCache/com.unity.visualeffectgraph@11.0.0/Editor/GraphView/Elements/Controllers/VFXOperatorController.cs"
"Library/PackageCache/com.unity.visualeffectgraph@11.0.0/Editor/GraphView/Elements/Controllers/VFXParameterController.cs"
"Library/PackageCache/com.unity.visualeffectgraph@11.0.0/Editor/GraphView/Elements/Controllers/VFXParameterNodeController.cs"
"Library/PackageCache/com.unity.visualeffectgraph@11.0.0/Editor/GraphView/Elements/Controllers/VFXSettingController.cs"
"Library/PackageCache/com.unity.visualeffectgraph@11.0.0/Editor/GraphView/Elements/Controllers/VFXSlotContainerController.cs"
"Library/PackageCache/com.unity.visualeffectgraph@11.0.0/Editor/GraphView/Elements/VFXBlockUI.cs"
"Library/PackageCache/com.unity.visualeffectgraph@11.0.0/Editor/GraphView/Elements/VFXContextUI.cs"
"Library/PackageCache/com.unity.visualeffectgraph@11.0.0/Editor/GraphView/Elements/VFXDataAnchor.cs"
"Library/PackageCache/com.unity.visualeffectgraph@11.0.0/Editor/GraphView/Elements/VFXDataEdge.cs"
"Library/PackageCache/com.unity.visualeffectgraph@11.0.0/Editor/GraphView/Elements/VFXEdgeConnector.cs"
"Library/PackageCache/com.unity.visualeffectgraph@11.0.0/Editor/GraphView/Elements/VFXEdgeDragInfo.cs"
"Library/PackageCache/com.unity.visualeffectgraph@11.0.0/Editor/GraphView/Elements/VFXEditableDataAnchor.cs"
"Library/PackageCache/com.unity.visualeffectgraph@11.0.0/Editor/GraphView/Elements/VFXElement.cs"
"Library/PackageCache/com.unity.visualeffectgraph@11.0.0/Editor/GraphView/Elements/VFXFlowAnchor.cs"
"Library/PackageCache/com.unity.visualeffectgraph@11.0.0/Editor/GraphView/Elements/VFXFlowEdge.cs"
"Library/PackageCache/com.unity.visualeffectgraph@11.0.0/Editor/GraphView/Elements/VFXGroupNode.cs"
"Library/PackageCache/com.unity.visualeffectgraph@11.0.0/Editor/GraphView/Elements/VFXMultiOperatorEdit.cs"
"Library/PackageCache/com.unity.visualeffectgraph@11.0.0/Editor/GraphView/Elements/VFXNodeUI.cs"
"Library/PackageCache/com.unity.visualeffectgraph@11.0.0/Editor/GraphView/Elements/VFXOperatorUI.cs"
"Library/PackageCache/com.unity.visualeffectgraph@11.0.0/Editor/GraphView/Elements/VFXOutputDataAnchor.cs"
"Library/PackageCache/com.unity.visualeffectgraph@11.0.0/Editor/GraphView/Elements/VFXParameterUI.cs"
"Library/PackageCache/com.unity.visualeffectgraph@11.0.0/Editor/GraphView/Elements/VFXStickyNote.cs"
"Library/PackageCache/com.unity.visualeffectgraph@11.0.0/Editor/GraphView/VFXComponentBoard.cs"
"Library/PackageCache/com.unity.visualeffectgraph@11.0.0/Editor/GraphView/VFXTypeDefinition.cs"
"Library/PackageCache/com.unity.visualeffectgraph@11.0.0/Editor/GraphView/VFXViewPreference.cs"
"Library/PackageCache/com.unity.visualeffectgraph@11.0.0/Editor/GraphView/VFXViewWindow.cs"
"Library/PackageCache/com.unity.visualeffectgraph@11.0.0/Editor/GraphView/Views/Controller/VFXGraphUndoCursor.cs"
"Library/PackageCache/com.unity.visualeffectgraph@11.0.0/Editor/GraphView/Views/Controller/VFXGraphValidation.cs"
"Library/PackageCache/com.unity.visualeffectgraph@11.0.0/Editor/GraphView/Views/Controller/VFXSystemController.cs"
"Library/PackageCache/com.unity.visualeffectgraph@11.0.0/Editor/GraphView/Views/Controller/VFXViewController.cs"
"Library/PackageCache/com.unity.visualeffectgraph@11.0.0/Editor/GraphView/Views/Controller/VFXViewControllerExpressions.cs"
"Library/PackageCache/com.unity.visualeffectgraph@11.0.0/Editor/GraphView/Views/Controller/VFXViewControllerUndo.cs"
"Library/PackageCache/com.unity.visualeffectgraph@11.0.0/Editor/GraphView/Views/Properties/BoolPropertyRM.cs"
"Library/PackageCache/com.unity.visualeffectgraph@11.0.0/Editor/GraphView/Views/Properties/ColorPropertyRM.cs"
"Library/PackageCache/com.unity.visualeffectgraph@11.0.0/Editor/GraphView/Views/Properties/CurvePropertyRM.cs"
"Library/PackageCache/com.unity.visualeffectgraph@11.0.0/Editor/GraphView/Views/Properties/GradientPropertyRM.cs"
"Library/PackageCache/com.unity.visualeffectgraph@11.0.0/Editor/GraphView/Views/Properties/ListPropertiesRM.cs"
"Library/PackageCache/com.unity.visualeffectgraph@11.0.0/Editor/GraphView/Views/Properties/NumericPropertiesRM.cs"
"Library/PackageCache/com.unity.visualeffectgraph@11.0.0/Editor/GraphView/Views/Properties/ObjectPropertyRM.cs"
"Library/PackageCache/com.unity.visualeffectgraph@11.0.0/Editor/GraphView/Views/Properties/PropertyRM.cs"
"Library/PackageCache/com.unity.visualeffectgraph@11.0.0/Editor/GraphView/Views/Properties/SimplePropertiesRM.cs"
"Library/PackageCache/com.unity.visualeffectgraph@11.0.0/Editor/GraphView/Views/Properties/SpaceablePropertiesRM.cs"
"Library/PackageCache/com.unity.visualeffectgraph@11.0.0/Editor/GraphView/Views/Properties/StringPropertyRM.cs"
"Library/PackageCache/com.unity.visualeffectgraph@11.0.0/Editor/GraphView/Views/Properties/Vector3PropertyRM.cs"
"Library/PackageCache/com.unity.visualeffectgraph@11.0.0/Editor/GraphView/Views/Properties/VectorPropertiesRM.cs"
"Library/PackageCache/com.unity.visualeffectgraph@11.0.0/Editor/GraphView/Views/Properties/VFXParameterEnumValuePropertyRM.cs"
"Library/PackageCache/com.unity.visualeffectgraph@11.0.0/Editor/GraphView/Views/VFXConvertSubgraph.cs"
"Library/PackageCache/com.unity.visualeffectgraph@11.0.0/Editor/GraphView/Views/VFXCopy.cs"
"Library/PackageCache/com.unity.visualeffectgraph@11.0.0/Editor/GraphView/Views/VFXCopyPasteCommon.cs"
"Library/PackageCache/com.unity.visualeffectgraph@11.0.0/Editor/GraphView/Views/VFXNodeProvider.cs"
"Library/PackageCache/com.unity.visualeffectgraph@11.0.0/Editor/GraphView/Views/VFXPaste.cs"
"Library/PackageCache/com.unity.visualeffectgraph@11.0.0/Editor/GraphView/Views/VFXView.cs"
"Library/PackageCache/com.unity.visualeffectgraph@11.0.0/Editor/Inspector/AdvancedVisualEffectEditor.cs"
"Library/PackageCache/com.unity.visualeffectgraph@11.0.0/Editor/Inspector/GizmoController.cs"
"Library/PackageCache/com.unity.visualeffectgraph@11.0.0/Editor/Inspector/VFXAssetEditor.cs"
"Library/PackageCache/com.unity.visualeffectgraph@11.0.0/Editor/Inspector/VFXBlockEditor.cs"
"Library/PackageCache/com.unity.visualeffectgraph@11.0.0/Editor/Inspector/VFXContextEditor.cs"
"Library/PackageCache/com.unity.visualeffectgraph@11.0.0/Editor/Inspector/VFXManagerEditor.cs"
"Library/PackageCache/com.unity.visualeffectgraph@11.0.0/Editor/Inspector/VFXParameterEditor.cs"
"Library/PackageCache/com.unity.visualeffectgraph@11.0.0/Editor/Inspector/VFXSlotContainerEditor.cs"
"Library/PackageCache/com.unity.visualeffectgraph@11.0.0/Editor/Inspector/VisualEffectEditor.cs"
"Library/PackageCache/com.unity.visualeffectgraph@11.0.0/Editor/Manipulators/DownClickable.cs"
"Library/PackageCache/com.unity.visualeffectgraph@11.0.0/Editor/Manipulators/SuperCollapser.cs"
"Library/PackageCache/com.unity.visualeffectgraph@11.0.0/Editor/Models/Blocks/Implementations/Attribute/AttributeFromCurve.cs"
"Library/PackageCache/com.unity.visualeffectgraph@11.0.0/Editor/Models/Blocks/Implementations/Attribute/AttributeFromMap.cs"
"Library/PackageCache/com.unity.visualeffectgraph@11.0.0/Editor/Models/Blocks/Implementations/Attribute/AttributeMassFromVolume.cs"
"Library/PackageCache/com.unity.visualeffectgraph@11.0.0/Editor/Models/Blocks/Implementations/Attribute/SetCustomAttribute.cs"
"Library/PackageCache/com.unity.visualeffectgraph@11.0.0/Editor/Models/Blocks/Implementations/CameraHelper.cs"
"Library/PackageCache/com.unity.visualeffectgraph@11.0.0/Editor/Models/Blocks/Implementations/Collision/CollisionAABox.cs"
"Library/PackageCache/com.unity.visualeffectgraph@11.0.0/Editor/Models/Blocks/Implementations/Collision/CollisionBase.cs"
"Library/PackageCache/com.unity.visualeffectgraph@11.0.0/Editor/Models/Blocks/Implementations/Collision/CollisionCylinder.cs"
"Library/PackageCache/com.unity.visualeffectgraph@11.0.0/Editor/Models/Blocks/Implementations/Collision/CollisionDepth.cs"
"Library/PackageCache/com.unity.visualeffectgraph@11.0.0/Editor/Models/Blocks/Implementations/Collision/CollisionPlane.cs"
"Library/PackageCache/com.unity.visualeffectgraph@11.0.0/Editor/Models/Blocks/Implementations/Collision/CollisionSDF.cs"
"Library/PackageCache/com.unity.visualeffectgraph@11.0.0/Editor/Models/Blocks/Implementations/Collision/CollisionSphere.cs"
"Library/PackageCache/com.unity.visualeffectgraph@11.0.0/Editor/Models/Blocks/Implementations/Color/ColorOverLife.cs"
"Library/PackageCache/com.unity.visualeffectgraph@11.0.0/Editor/Models/Blocks/Implementations/FlipBook/FlipbookPlay.cs"
"Library/PackageCache/com.unity.visualeffectgraph@11.0.0/Editor/Models/Blocks/Implementations/Forces/ConformToSDF.cs"
"Library/PackageCache/com.unity.visualeffectgraph@11.0.0/Editor/Models/Blocks/Implementations/Forces/ConformToSphere.cs"
"Library/PackageCache/com.unity.visualeffectgraph@11.0.0/Editor/Models/Blocks/Implementations/Forces/Drag.cs"
"Library/PackageCache/com.unity.visualeffectgraph@11.0.0/Editor/Models/Blocks/Implementations/Forces/Force.cs"
"Library/PackageCache/com.unity.visualeffectgraph@11.0.0/Editor/Models/Blocks/Implementations/Forces/ForceHelper.cs"
"Library/PackageCache/com.unity.visualeffectgraph@11.0.0/Editor/Models/Blocks/Implementations/Forces/Gravity.cs"
"Library/PackageCache/com.unity.visualeffectgraph@11.0.0/Editor/Models/Blocks/Implementations/Forces/Turbulence.cs"
"Library/PackageCache/com.unity.visualeffectgraph@11.0.0/Editor/Models/Blocks/Implementations/Forces/VectorFieldForce.cs"
"Library/PackageCache/com.unity.visualeffectgraph@11.0.0/Editor/Models/Blocks/Implementations/GPUEvent/GPUEventAlways.cs"
"Library/PackageCache/com.unity.visualeffectgraph@11.0.0/Editor/Models/Blocks/Implementations/GPUEvent/GPUEventOnDie.cs"
"Library/PackageCache/com.unity.visualeffectgraph@11.0.0/Editor/Models/Blocks/Implementations/GPUEvent/GPUEventRate.cs"
"Library/PackageCache/com.unity.visualeffectgraph@11.0.0/Editor/Models/Blocks/Implementations/Kill/KillAABox.cs"
"Library/PackageCache/com.unity.visualeffectgraph@11.0.0/Editor/Models/Blocks/Implementations/Kill/KillSphere.cs"
"Library/PackageCache/com.unity.visualeffectgraph@11.0.0/Editor/Models/Blocks/Implementations/Orientation/ConnectTarget.cs"
"Library/PackageCache/com.unity.visualeffectgraph@11.0.0/Editor/Models/Blocks/Implementations/Orientation/Orient.cs"
"Library/PackageCache/com.unity.visualeffectgraph@11.0.0/Editor/Models/Blocks/Implementations/Output/CameraFade.cs"
"Library/PackageCache/com.unity.visualeffectgraph@11.0.0/Editor/Models/Blocks/Implementations/Output/SubpixelAA.cs"
"Library/PackageCache/com.unity.visualeffectgraph@11.0.0/Editor/Models/Blocks/Implementations/Position/PositionAABox.cs"
"Library/PackageCache/com.unity.visualeffectgraph@11.0.0/Editor/Models/Blocks/Implementations/Position/PositionBase.cs"
"Library/PackageCache/com.unity.visualeffectgraph@11.0.0/Editor/Models/Blocks/Implementations/Position/PositionCircle.cs"
"Library/PackageCache/com.unity.visualeffectgraph@11.0.0/Editor/Models/Blocks/Implementations/Position/PositionCone.cs"
"Library/PackageCache/com.unity.visualeffectgraph@11.0.0/Editor/Models/Blocks/Implementations/Position/PositionDepth.cs"
"Library/PackageCache/com.unity.visualeffectgraph@11.0.0/Editor/Models/Blocks/Implementations/Position/PositionLine.cs"
"Library/PackageCache/com.unity.visualeffectgraph@11.0.0/Editor/Models/Blocks/Implementations/Position/PositionMesh.cs"
"Library/PackageCache/com.unity.visualeffectgraph@11.0.0/Editor/Models/Blocks/Implementations/Position/PositionSDF.cs"
"Library/PackageCache/com.unity.visualeffectgraph@11.0.0/Editor/Models/Blocks/Implementations/Position/PositionSequential.cs"
"Library/PackageCache/com.unity.visualeffectgraph@11.0.0/Editor/Models/Blocks/Implementations/Position/PositionSphere.cs"
"Library/PackageCache/com.unity.visualeffectgraph@11.0.0/Editor/Models/Blocks/Implementations/Position/PositionTorus.cs"
"Library/PackageCache/com.unity.visualeffectgraph@11.0.0/Editor/Models/Blocks/Implementations/Position/TileWarp.cs"
"Library/PackageCache/com.unity.visualeffectgraph@11.0.0/Editor/Models/Blocks/Implementations/SetAttribute.cs"
"Library/PackageCache/com.unity.visualeffectgraph@11.0.0/Editor/Models/Blocks/Implementations/Size/ScreenSpaceSize.cs"
"Library/PackageCache/com.unity.visualeffectgraph@11.0.0/Editor/Models/Blocks/Implementations/Spawn/VFXAbstractSpawner.cs"
"Library/PackageCache/com.unity.visualeffectgraph@11.0.0/Editor/Models/Blocks/Implementations/Spawn/VFXSpawnerBurst.cs"
"Library/PackageCache/com.unity.visualeffectgraph@11.0.0/Editor/Models/Blocks/Implementations/Spawn/VFXSpawnerBurstOld.cs"
"Library/PackageCache/com.unity.visualeffectgraph@11.0.0/Editor/Models/Blocks/Implementations/Spawn/VFXSpawnerConstantRate.cs"
"Library/PackageCache/com.unity.visualeffectgraph@11.0.0/Editor/Models/Blocks/Implementations/Spawn/VFXSpawnerCustomWrapper.cs"
"Library/PackageCache/com.unity.visualeffectgraph@11.0.0/Editor/Models/Blocks/Implementations/Spawn/VFXSpawnerPeriodicBurst.cs"
"Library/PackageCache/com.unity.visualeffectgraph@11.0.0/Editor/Models/Blocks/Implementations/Spawn/VFXSpawnerSetAttribute.cs"
"Library/PackageCache/com.unity.visualeffectgraph@11.0.0/Editor/Models/Blocks/Implementations/Spawn/VFXSpawnerVariableRate.cs"
"Library/PackageCache/com.unity.visualeffectgraph@11.0.0/Editor/Models/Blocks/Implementations/Update/Age.cs"
"Library/PackageCache/com.unity.visualeffectgraph@11.0.0/Editor/Models/Blocks/Implementations/Update/AngularEulerIntegration.cs"
"Library/PackageCache/com.unity.visualeffectgraph@11.0.0/Editor/Models/Blocks/Implementations/Update/BackupOldPosition.cs"
"Library/PackageCache/com.unity.visualeffectgraph@11.0.0/Editor/Models/Blocks/Implementations/Update/EulerIntegration.cs"
"Library/PackageCache/com.unity.visualeffectgraph@11.0.0/Editor/Models/Blocks/Implementations/Update/Reap.cs"
"Library/PackageCache/com.unity.visualeffectgraph@11.0.0/Editor/Models/Blocks/Implementations/Velocity/VelocityBase.cs"
"Library/PackageCache/com.unity.visualeffectgraph@11.0.0/Editor/Models/Blocks/Implementations/Velocity/VelocityDirection.cs"
"Library/PackageCache/com.unity.visualeffectgraph@11.0.0/Editor/Models/Blocks/Implementations/Velocity/VelocityRandomize.cs"
"Library/PackageCache/com.unity.visualeffectgraph@11.0.0/Editor/Models/Blocks/Implementations/Velocity/VelocitySpeed.cs"
"Library/PackageCache/com.unity.visualeffectgraph@11.0.0/Editor/Models/Blocks/Implementations/Velocity/VelocitySpherical.cs"
"Library/PackageCache/com.unity.visualeffectgraph@11.0.0/Editor/Models/Blocks/Implementations/Velocity/VelocityTangent.cs"
"Library/PackageCache/com.unity.visualeffectgraph@11.0.0/Editor/Models/Blocks/Implementations/VFXBlockUtility.cs"
"Library/PackageCache/com.unity.visualeffectgraph@11.0.0/Editor/Models/Blocks/VFXBlock.cs"
"Library/PackageCache/com.unity.visualeffectgraph@11.0.0/Editor/Models/Blocks/VFXSubgraphBlock.cs"
"Library/PackageCache/com.unity.visualeffectgraph@11.0.0/Editor/Models/Contexts/Implementations/VFXAbstractParticleOutput.cs"
"Library/PackageCache/com.unity.visualeffectgraph@11.0.0/Editor/Models/Contexts/Implementations/VFXAbstractRenderedOutput.cs"
"Library/PackageCache/com.unity.visualeffectgraph@11.0.0/Editor/Models/Contexts/Implementations/VFXBasicCubeOutput.cs"
"Library/PackageCache/com.unity.visualeffectgraph@11.0.0/Editor/Models/Contexts/Implementations/VFXBasicEvent.cs"
"Library/PackageCache/com.unity.visualeffectgraph@11.0.0/Editor/Models/Contexts/Implementations/VFXBasicGPUEvent.cs"
"Library/PackageCache/com.unity.visualeffectgraph@11.0.0/Editor/Models/Contexts/Implementations/VFXBasicInitialize.cs"
"Library/PackageCache/com.unity.visualeffectgraph@11.0.0/Editor/Models/Contexts/Implementations/VFXBasicSpawner.cs"
"Library/PackageCache/com.unity.visualeffectgraph@11.0.0/Editor/Models/Contexts/Implementations/VFXBasicUpdate.cs"
"Library/PackageCache/com.unity.visualeffectgraph@11.0.0/Editor/Models/Contexts/Implementations/VFXCubeTestOutput.cs"
"Library/PackageCache/com.unity.visualeffectgraph@11.0.0/Editor/Models/Contexts/Implementations/VFXDecalOutput.cs"
"Library/PackageCache/com.unity.visualeffectgraph@11.0.0/Editor/Models/Contexts/Implementations/VFXLineOutput.cs"
"Library/PackageCache/com.unity.visualeffectgraph@11.0.0/Editor/Models/Contexts/Implementations/VFXLineStripOutput.cs"
"Library/PackageCache/com.unity.visualeffectgraph@11.0.0/Editor/Models/Contexts/Implementations/VFXMeshOutput.cs"
"Library/PackageCache/com.unity.visualeffectgraph@11.0.0/Editor/Models/Contexts/Implementations/VFXOutputEvent.cs"
"Library/PackageCache/com.unity.visualeffectgraph@11.0.0/Editor/Models/Contexts/Implementations/VFXPlanarPrimitiveHelper.cs"
"Library/PackageCache/com.unity.visualeffectgraph@11.0.0/Editor/Models/Contexts/Implementations/VFXPlanarPrimitiveOutput.cs"
"Library/PackageCache/com.unity.visualeffectgraph@11.0.0/Editor/Models/Contexts/Implementations/VFXPointOutput.cs"
"Library/PackageCache/com.unity.visualeffectgraph@11.0.0/Editor/Models/Contexts/Implementations/VFXQuadStripOutput.cs"
"Library/PackageCache/com.unity.visualeffectgraph@11.0.0/Editor/Models/Contexts/Implementations/VFXStaticMeshOutput.cs"
"Library/PackageCache/com.unity.visualeffectgraph@11.0.0/Editor/Models/Contexts/IVFXSubRenderer.cs"
"Library/PackageCache/com.unity.visualeffectgraph@11.0.0/Editor/Models/Contexts/VFXBlockSubgraphContext.cs"
"Library/PackageCache/com.unity.visualeffectgraph@11.0.0/Editor/Models/Contexts/VFXCameraSort.cs"
"Library/PackageCache/com.unity.visualeffectgraph@11.0.0/Editor/Models/Contexts/VFXContext.cs"
"Library/PackageCache/com.unity.visualeffectgraph@11.0.0/Editor/Models/Contexts/VFXMultiMeshHelper.cs"
"Library/PackageCache/com.unity.visualeffectgraph@11.0.0/Editor/Models/Contexts/VFXOutputUpdate.cs"
"Library/PackageCache/com.unity.visualeffectgraph@11.0.0/Editor/Models/Contexts/VFXSRPSubOutput.cs"
"Library/PackageCache/com.unity.visualeffectgraph@11.0.0/Editor/Models/Contexts/VFXSubgraphContext.cs"
"Library/PackageCache/com.unity.visualeffectgraph@11.0.0/Editor/Models/Operators/Implementations/AABoxVolume.cs"
"Library/PackageCache/com.unity.visualeffectgraph@11.0.0/Editor/Models/Operators/Implementations/Absolute.cs"
"Library/PackageCache/com.unity.visualeffectgraph@11.0.0/Editor/Models/Operators/Implementations/Acos.cs"
"Library/PackageCache/com.unity.visualeffectgraph@11.0.0/Editor/Models/Operators/Implementations/Add.cs"
"Library/PackageCache/com.unity.visualeffectgraph@11.0.0/Editor/Models/Operators/Implementations/AgeOverLifetime.cs"
"Library/PackageCache/com.unity.visualeffectgraph@11.0.0/Editor/Models/Operators/Implementations/AppendVector.cs"
"Library/PackageCache/com.unity.visualeffectgraph@11.0.0/Editor/Models/Operators/Implementations/Asin.cs"
"Library/PackageCache/com.unity.visualeffectgraph@11.0.0/Editor/Models/Operators/Implementations/Atan.cs"
"Library/PackageCache/com.unity.visualeffectgraph@11.0.0/Editor/Models/Operators/Implementations/Atan2.cs"
"Library/PackageCache/com.unity.visualeffectgraph@11.0.0/Editor/Models/Operators/Implementations/BitwiseAnd.cs"
"Library/PackageCache/com.unity.visualeffectgraph@11.0.0/Editor/Models/Operators/Implementations/BitwiseComplement.cs"
"Library/PackageCache/com.unity.visualeffectgraph@11.0.0/Editor/Models/Operators/Implementations/BitwiseLeftShift.cs"
"Library/PackageCache/com.unity.visualeffectgraph@11.0.0/Editor/Models/Operators/Implementations/BitwiseOr.cs"
"Library/PackageCache/com.unity.visualeffectgraph@11.0.0/Editor/Models/Operators/Implementations/BitwiseRightShift.cs"
"Library/PackageCache/com.unity.visualeffectgraph@11.0.0/Editor/Models/Operators/Implementations/BitwiseXor.cs"
"Library/PackageCache/com.unity.visualeffectgraph@11.0.0/Editor/Models/Operators/Implementations/Branch.cs"
"Library/PackageCache/com.unity.visualeffectgraph@11.0.0/Editor/Models/Operators/Implementations/Ceiling.cs"
"Library/PackageCache/com.unity.visualeffectgraph@11.0.0/Editor/Models/Operators/Implementations/ChangeSpace.cs"
"Library/PackageCache/com.unity.visualeffectgraph@11.0.0/Editor/Models/Operators/Implementations/CircleArea.cs"
"Library/PackageCache/com.unity.visualeffectgraph@11.0.0/Editor/Models/Operators/Implementations/Clamp.cs"
"Library/PackageCache/com.unity.visualeffectgraph@11.0.0/Editor/Models/Operators/Implementations/ColorLuma.cs"
"Library/PackageCache/com.unity.visualeffectgraph@11.0.0/Editor/Models/Operators/Implementations/Condition.cs"
"Library/PackageCache/com.unity.visualeffectgraph@11.0.0/Editor/Models/Operators/Implementations/ConeVolume.cs"
"Library/PackageCache/com.unity.visualeffectgraph@11.0.0/Editor/Models/Operators/Implementations/ConstructMatrix.cs"
"Library/PackageCache/com.unity.visualeffectgraph@11.0.0/Editor/Models/Operators/Implementations/Cosine.cs"
"Library/PackageCache/com.unity.visualeffectgraph@11.0.0/Editor/Models/Operators/Implementations/CrossProduct.cs"
"Library/PackageCache/com.unity.visualeffectgraph@11.0.0/Editor/Models/Operators/Implementations/CrossProductDeprecated.cs"
"Library/PackageCache/com.unity.visualeffectgraph@11.0.0/Editor/Models/Operators/Implementations/CurlNoise.cs"
"Library/PackageCache/com.unity.visualeffectgraph@11.0.0/Editor/Models/Operators/Implementations/CylinderVolume.cs"
"Library/PackageCache/com.unity.visualeffectgraph@11.0.0/Editor/Models/Operators/Implementations/Deprecated/CellularNoise.cs"
"Library/PackageCache/com.unity.visualeffectgraph@11.0.0/Editor/Models/Operators/Implementations/Deprecated/NoiseBaseOld.cs"
"Library/PackageCache/com.unity.visualeffectgraph@11.0.0/Editor/Models/Operators/Implementations/Deprecated/PerlinNoise.cs"
"Library/PackageCache/com.unity.visualeffectgraph@11.0.0/Editor/Models/Operators/Implementations/Deprecated/SanitizeHelper.cs"
"Library/PackageCache/com.unity.visualeffectgraph@11.0.0/Editor/Models/Operators/Implementations/Deprecated/SimplexNoise.cs"
"Library/PackageCache/com.unity.visualeffectgraph@11.0.0/Editor/Models/Operators/Implementations/Deprecated/ValueNoise.cs"
"Library/PackageCache/com.unity.visualeffectgraph@11.0.0/Editor/Models/Operators/Implementations/Discretize.cs"
"Library/PackageCache/com.unity.visualeffectgraph@11.0.0/Editor/Models/Operators/Implementations/Distance.cs"
"Library/PackageCache/com.unity.visualeffectgraph@11.0.0/Editor/Models/Operators/Implementations/DistanceToLine.cs"
"Library/PackageCache/com.unity.visualeffectgraph@11.0.0/Editor/Models/Operators/Implementations/DistanceToPlane.cs"
"Library/PackageCache/com.unity.visualeffectgraph@11.0.0/Editor/Models/Operators/Implementations/DistanceToSphere.cs"
"Library/PackageCache/com.unity.visualeffectgraph@11.0.0/Editor/Models/Operators/Implementations/Divide.cs"
"Library/PackageCache/com.unity.visualeffectgraph@11.0.0/Editor/Models/Operators/Implementations/DotProduct.cs"
"Library/PackageCache/com.unity.visualeffectgraph@11.0.0/Editor/Models/Operators/Implementations/Epsilon.cs"
"Library/PackageCache/com.unity.visualeffectgraph@11.0.0/Editor/Models/Operators/Implementations/Exp.cs"
"Library/PackageCache/com.unity.visualeffectgraph@11.0.0/Editor/Models/Operators/Implementations/Floor.cs"
"Library/PackageCache/com.unity.visualeffectgraph@11.0.0/Editor/Models/Operators/Implementations/Fractional.cs"
"Library/PackageCache/com.unity.visualeffectgraph@11.0.0/Editor/Models/Operators/Implementations/GetCustomAttribute.cs"
"Library/PackageCache/com.unity.visualeffectgraph@11.0.0/Editor/Models/Operators/Implementations/GetSpawnCount.cs"
"Library/PackageCache/com.unity.visualeffectgraph@11.0.0/Editor/Models/Operators/Implementations/HSVtoRGB.cs"
"Library/PackageCache/com.unity.visualeffectgraph@11.0.0/Editor/Models/Operators/Implementations/InverseLerp.cs"
"Library/PackageCache/com.unity.visualeffectgraph@11.0.0/Editor/Models/Operators/Implementations/InverseTRSMatrix.cs"
"Library/PackageCache/com.unity.visualeffectgraph@11.0.0/Editor/Models/Operators/Implementations/Length.cs"
"Library/PackageCache/com.unity.visualeffectgraph@11.0.0/Editor/Models/Operators/Implementations/Lerp.cs"
"Library/PackageCache/com.unity.visualeffectgraph@11.0.0/Editor/Models/Operators/Implementations/LoadTexture2D.cs"
"Library/PackageCache/com.unity.visualeffectgraph@11.0.0/Editor/Models/Operators/Implementations/LoadTexture2DArray.cs"
"Library/PackageCache/com.unity.visualeffectgraph@11.0.0/Editor/Models/Operators/Implementations/LoadTexture3D.cs"
"Library/PackageCache/com.unity.visualeffectgraph@11.0.0/Editor/Models/Operators/Implementations/Log.cs"
"Library/PackageCache/com.unity.visualeffectgraph@11.0.0/Editor/Models/Operators/Implementations/LogicalAnd.cs"
"Library/PackageCache/com.unity.visualeffectgraph@11.0.0/Editor/Models/Operators/Implementations/LogicalNand.cs"
"Library/PackageCache/com.unity.visualeffectgraph@11.0.0/Editor/Models/Operators/Implementations/LogicalNor.cs"
"Library/PackageCache/com.unity.visualeffectgraph@11.0.0/Editor/Models/Operators/Implementations/LogicalNot.cs"
"Library/PackageCache/com.unity.visualeffectgraph@11.0.0/Editor/Models/Operators/Implementations/LogicalOr.cs"
"Library/PackageCache/com.unity.visualeffectgraph@11.0.0/Editor/Models/Operators/Implementations/LookAt.cs"
"Library/PackageCache/com.unity.visualeffectgraph@11.0.0/Editor/Models/Operators/Implementations/MainCamera.cs"
"Library/PackageCache/com.unity.visualeffectgraph@11.0.0/Editor/Models/Operators/Implementations/Maximum.cs"
"Library/PackageCache/com.unity.visualeffectgraph@11.0.0/Editor/Models/Operators/Implementations/MeshIndexCount.cs"
"Library/PackageCache/com.unity.visualeffectgraph@11.0.0/Editor/Models/Operators/Implementations/MeshVertexCount.cs"
"Library/PackageCache/com.unity.visualeffectgraph@11.0.0/Editor/Models/Operators/Implementations/Minimum.cs"
"Library/PackageCache/com.unity.visualeffectgraph@11.0.0/Editor/Models/Operators/Implementations/Modulo.cs"
"Library/PackageCache/com.unity.visualeffectgraph@11.0.0/Editor/Models/Operators/Implementations/Multiply.cs"
"Library/PackageCache/com.unity.visualeffectgraph@11.0.0/Editor/Models/Operators/Implementations/Negate.cs"
"Library/PackageCache/com.unity.visualeffectgraph@11.0.0/Editor/Models/Operators/Implementations/Noise.cs"
"Library/PackageCache/com.unity.visualeffectgraph@11.0.0/Editor/Models/Operators/Implementations/NoiseBase.cs"
"Library/PackageCache/com.unity.visualeffectgraph@11.0.0/Editor/Models/Operators/Implementations/Normalize.cs"
"Library/PackageCache/com.unity.visualeffectgraph@11.0.0/Editor/Models/Operators/Implementations/OneMinus.cs"
"Library/PackageCache/com.unity.visualeffectgraph@11.0.0/Editor/Models/Operators/Implementations/OrientedBoxVolume.cs"
"Library/PackageCache/com.unity.visualeffectgraph@11.0.0/Editor/Models/Operators/Implementations/PeriodicTotalTime.cs"
"Library/PackageCache/com.unity.visualeffectgraph@11.0.0/Editor/Models/Operators/Implementations/PerParticleTotalTime.cs"
"Library/PackageCache/com.unity.visualeffectgraph@11.0.0/Editor/Models/Operators/Implementations/Pi.cs"
"Library/PackageCache/com.unity.visualeffectgraph@11.0.0/Editor/Models/Operators/Implementations/PolarToRectangular.cs"
"Library/PackageCache/com.unity.visualeffectgraph@11.0.0/Editor/Models/Operators/Implementations/PositionDepth.cs"
"Library/PackageCache/com.unity.visualeffectgraph@11.0.0/Editor/Models/Operators/Implementations/Power.cs"
"Library/PackageCache/com.unity.visualeffectgraph@11.0.0/Editor/Models/Operators/Implementations/ProbabilitySampling.cs"
"Library/PackageCache/com.unity.visualeffectgraph@11.0.0/Editor/Models/Operators/Implementations/Random.cs"
"Library/PackageCache/com.unity.visualeffectgraph@11.0.0/Editor/Models/Operators/Implementations/Reciprocal.cs"
"Library/PackageCache/com.unity.visualeffectgraph@11.0.0/Editor/Models/Operators/Implementations/RectangularToPolar.cs"
"Library/PackageCache/com.unity.visualeffectgraph@11.0.0/Editor/Models/Operators/Implementations/RectangularToSpherical.cs"
"Library/PackageCache/com.unity.visualeffectgraph@11.0.0/Editor/Models/Operators/Implementations/Remap.cs"
"Library/PackageCache/com.unity.visualeffectgraph@11.0.0/Editor/Models/Operators/Implementations/RemapToNegOnePosOne.cs"
"Library/PackageCache/com.unity.visualeffectgraph@11.0.0/Editor/Models/Operators/Implementations/RemapToZeroOne.cs"
"Library/PackageCache/com.unity.visualeffectgraph@11.0.0/Editor/Models/Operators/Implementations/RGBtoHSV.cs"
"Library/PackageCache/com.unity.visualeffectgraph@11.0.0/Editor/Models/Operators/Implementations/Rotate2D.cs"
"Library/PackageCache/com.unity.visualeffectgraph@11.0.0/Editor/Models/Operators/Implementations/Rotate3D.cs"
"Library/PackageCache/com.unity.visualeffectgraph@11.0.0/Editor/Models/Operators/Implementations/Round.cs"
"Library/PackageCache/com.unity.visualeffectgraph@11.0.0/Editor/Models/Operators/Implementations/SampleAttributeMap.cs"
"Library/PackageCache/com.unity.visualeffectgraph@11.0.0/Editor/Models/Operators/Implementations/SampleBezier.cs"
"Library/PackageCache/com.unity.visualeffectgraph@11.0.0/Editor/Models/Operators/Implementations/SampleCurve.cs"
"Library/PackageCache/com.unity.visualeffectgraph@11.0.0/Editor/Models/Operators/Implementations/SampleGradient.cs"
"Library/PackageCache/com.unity.visualeffectgraph@11.0.0/Editor/Models/Operators/Implementations/SampleIndex.cs"
"Library/PackageCache/com.unity.visualeffectgraph@11.0.0/Editor/Models/Operators/Implementations/SampleMesh.cs"
"Library/PackageCache/com.unity.visualeffectgraph@11.0.0/Editor/Models/Operators/Implementations/SamplePointCache.cs"
"Library/PackageCache/com.unity.visualeffectgraph@11.0.0/Editor/Models/Operators/Implementations/SampleSDF.cs"
"Library/PackageCache/com.unity.visualeffectgraph@11.0.0/Editor/Models/Operators/Implementations/SampleTexture2D.cs"
"Library/PackageCache/com.unity.visualeffectgraph@11.0.0/Editor/Models/Operators/Implementations/SampleTexture2DArray.cs"
"Library/PackageCache/com.unity.visualeffectgraph@11.0.0/Editor/Models/Operators/Implementations/SampleTexture3D.cs"
"Library/PackageCache/com.unity.visualeffectgraph@11.0.0/Editor/Models/Operators/Implementations/SampleTextureCube.cs"
"Library/PackageCache/com.unity.visualeffectgraph@11.0.0/Editor/Models/Operators/Implementations/SampleTextureCubeArray.cs"
"Library/PackageCache/com.unity.visualeffectgraph@11.0.0/Editor/Models/Operators/Implementations/Saturate.cs"
"Library/PackageCache/com.unity.visualeffectgraph@11.0.0/Editor/Models/Operators/Implementations/SawtoothWave.cs"
"Library/PackageCache/com.unity.visualeffectgraph@11.0.0/Editor/Models/Operators/Implementations/Sequential3D.cs"
"Library/PackageCache/com.unity.visualeffectgraph@11.0.0/Editor/Models/Operators/Implementations/SequentialCircle.cs"
"Library/PackageCache/com.unity.visualeffectgraph@11.0.0/Editor/Models/Operators/Implementations/SequentialLine.cs"
"Library/PackageCache/com.unity.visualeffectgraph@11.0.0/Editor/Models/Operators/Implementations/Sign.cs"
"Library/PackageCache/com.unity.visualeffectgraph@11.0.0/Editor/Models/Operators/Implementations/Sine.cs"
"Library/PackageCache/com.unity.visualeffectgraph@11.0.0/Editor/Models/Operators/Implementations/SineWave.cs"
"Library/PackageCache/com.unity.visualeffectgraph@11.0.0/Editor/Models/Operators/Implementations/Smoothstep.cs"
"Library/PackageCache/com.unity.visualeffectgraph@11.0.0/Editor/Models/Operators/Implementations/SpawnState.cs"
"Library/PackageCache/com.unity.visualeffectgraph@11.0.0/Editor/Models/Operators/Implementations/SphereVolume.cs"
"Library/PackageCache/com.unity.visualeffectgraph@11.0.0/Editor/Models/Operators/Implementations/SphericalToRectangular.cs"
"Library/PackageCache/com.unity.visualeffectgraph@11.0.0/Editor/Models/Operators/Implementations/SquaredDistance.cs"
"Library/PackageCache/com.unity.visualeffectgraph@11.0.0/Editor/Models/Operators/Implementations/SquaredLength.cs"
"Library/PackageCache/com.unity.visualeffectgraph@11.0.0/Editor/Models/Operators/Implementations/SquareRoot.cs"
"Library/PackageCache/com.unity.visualeffectgraph@11.0.0/Editor/Models/Operators/Implementations/SquareWave.cs"
"Library/PackageCache/com.unity.visualeffectgraph@11.0.0/Editor/Models/Operators/Implementations/Step.cs"
"Library/PackageCache/com.unity.visualeffectgraph@11.0.0/Editor/Models/Operators/Implementations/Subtract.cs"
"Library/PackageCache/com.unity.visualeffectgraph@11.0.0/Editor/Models/Operators/Implementations/Switch.cs"
"Library/PackageCache/com.unity.visualeffectgraph@11.0.0/Editor/Models/Operators/Implementations/Swizzle.cs"
"Library/PackageCache/com.unity.visualeffectgraph@11.0.0/Editor/Models/Operators/Implementations/Tangent.cs"
"Library/PackageCache/com.unity.visualeffectgraph@11.0.0/Editor/Models/Operators/Implementations/TextureDimensions.cs"
"Library/PackageCache/com.unity.visualeffectgraph@11.0.0/Editor/Models/Operators/Implementations/TorusVolume.cs"
"Library/PackageCache/com.unity.visualeffectgraph@11.0.0/Editor/Models/Operators/Implementations/TransformDirection.cs"
"Library/PackageCache/com.unity.visualeffectgraph@11.0.0/Editor/Models/Operators/Implementations/TransformMatrix.cs"
"Library/PackageCache/com.unity.visualeffectgraph@11.0.0/Editor/Models/Operators/Implementations/TransformPosition.cs"
"Library/PackageCache/com.unity.visualeffectgraph@11.0.0/Editor/Models/Operators/Implementations/TransformVector.cs"
"Library/PackageCache/com.unity.visualeffectgraph@11.0.0/Editor/Models/Operators/Implementations/TransformVector4.cs"
"Library/PackageCache/com.unity.visualeffectgraph@11.0.0/Editor/Models/Operators/Implementations/TransposeMatrix.cs"
"Library/PackageCache/com.unity.visualeffectgraph@11.0.0/Editor/Models/Operators/Implementations/TriangleWave.cs"
"Library/PackageCache/com.unity.visualeffectgraph@11.0.0/Editor/Models/Operators/Implementations/ViewportToWorldPoint.cs"
"Library/PackageCache/com.unity.visualeffectgraph@11.0.0/Editor/Models/Operators/Implementations/VoroNoise2D.cs"
"Library/PackageCache/com.unity.visualeffectgraph@11.0.0/Editor/Models/Operators/Implementations/WorldToViewportPoint.cs"
"Library/PackageCache/com.unity.visualeffectgraph@11.0.0/Editor/Models/Operators/VFXAbstractOperatorNew.cs"
"Library/PackageCache/com.unity.visualeffectgraph@11.0.0/Editor/Models/Operators/VFXOperator.cs"
"Library/PackageCache/com.unity.visualeffectgraph@11.0.0/Editor/Models/Operators/VFXOperatorUtility.cs"
"Library/PackageCache/com.unity.visualeffectgraph@11.0.0/Editor/Models/Operators/VFXSubgraphOperator.cs"
"Library/PackageCache/com.unity.visualeffectgraph@11.0.0/Editor/Models/Parameters/Deprecated/VFXBuiltInParameter.cs"
"Library/PackageCache/com.unity.visualeffectgraph@11.0.0/Editor/Models/Parameters/VFXAttributeParameter.cs"
"Library/PackageCache/com.unity.visualeffectgraph@11.0.0/Editor/Models/Parameters/VFXCurrentAttributeParameter.cs"
"Library/PackageCache/com.unity.visualeffectgraph@11.0.0/Editor/Models/Parameters/VFXDynamicBuiltInParameter.cs"
"Library/PackageCache/com.unity.visualeffectgraph@11.0.0/Editor/Models/Parameters/VFXInlineOperator.cs"
"Library/PackageCache/com.unity.visualeffectgraph@11.0.0/Editor/Models/Parameters/VFXParameter.cs"
"Library/PackageCache/com.unity.visualeffectgraph@11.0.0/Editor/Models/Parameters/VFXSourceAttributeParameter.cs"
"Library/PackageCache/com.unity.visualeffectgraph@11.0.0/Editor/Models/Slots/Implementations/VFXSlotAnimationCurve.cs"
"Library/PackageCache/com.unity.visualeffectgraph@11.0.0/Editor/Models/Slots/Implementations/VFXSlotBool.cs"
"Library/PackageCache/com.unity.visualeffectgraph@11.0.0/Editor/Models/Slots/Implementations/VFXSlotColor.cs"
"Library/PackageCache/com.unity.visualeffectgraph@11.0.0/Editor/Models/Slots/Implementations/VFXSlotDirection.cs"
"Library/PackageCache/com.unity.visualeffectgraph@11.0.0/Editor/Models/Slots/Implementations/VFXSlotEncapsulated.cs"
"Library/PackageCache/com.unity.visualeffectgraph@11.0.0/Editor/Models/Slots/Implementations/VFXSlotFlipBook.cs"
"Library/PackageCache/com.unity.visualeffectgraph@11.0.0/Editor/Models/Slots/Implementations/VFXSlotFloat.cs"
"Library/PackageCache/com.unity.visualeffectgraph@11.0.0/Editor/Models/Slots/Implementations/VFXSlotFloat2.cs"
"Library/PackageCache/com.unity.visualeffectgraph@11.0.0/Editor/Models/Slots/Implementations/VFXSlotFloat3.cs"
"Library/PackageCache/com.unity.visualeffectgraph@11.0.0/Editor/Models/Slots/Implementations/VFXSlotFloat4.cs"
"Library/PackageCache/com.unity.visualeffectgraph@11.0.0/Editor/Models/Slots/Implementations/VFXSlotGradient.cs"
"Library/PackageCache/com.unity.visualeffectgraph@11.0.0/Editor/Models/Slots/Implementations/VFXSlotInt.cs"
"Library/PackageCache/com.unity.visualeffectgraph@11.0.0/Editor/Models/Slots/Implementations/VFXSlotMatrix4x4.cs"
"Library/PackageCache/com.unity.visualeffectgraph@11.0.0/Editor/Models/Slots/Implementations/VFXSlotMesh.cs"
"Library/PackageCache/com.unity.visualeffectgraph@11.0.0/Editor/Models/Slots/Implementations/VFXSlotObject.cs"
"Library/PackageCache/com.unity.visualeffectgraph@11.0.0/Editor/Models/Slots/Implementations/VFXSlotOrientedBox.cs"
"Library/PackageCache/com.unity.visualeffectgraph@11.0.0/Editor/Models/Slots/Implementations/VFXSlotPosition.cs"
"Library/PackageCache/com.unity.visualeffectgraph@11.0.0/Editor/Models/Slots/Implementations/VFXSlotSkinnedMeshRenderer.cs"
"Library/PackageCache/com.unity.visualeffectgraph@11.0.0/Editor/Models/Slots/Implementations/VFXSlotTexture2D.cs"
"Library/PackageCache/com.unity.visualeffectgraph@11.0.0/Editor/Models/Slots/Implementations/VFXSlotTexture2DArray.cs"
"Library/PackageCache/com.unity.visualeffectgraph@11.0.0/Editor/Models/Slots/Implementations/VFXSlotTexture3D.cs"
"Library/PackageCache/com.unity.visualeffectgraph@11.0.0/Editor/Models/Slots/Implementations/VFXSlotTextureCube.cs"
"Library/PackageCache/com.unity.visualeffectgraph@11.0.0/Editor/Models/Slots/Implementations/VFXSlotTextureCubeArray.cs"
"Library/PackageCache/com.unity.visualeffectgraph@11.0.0/Editor/Models/Slots/Implementations/VFXSlotTransform.cs"
"Library/PackageCache/com.unity.visualeffectgraph@11.0.0/Editor/Models/Slots/Implementations/VFXSlotUint.cs"
"Library/PackageCache/com.unity.visualeffectgraph@11.0.0/Editor/Models/Slots/Implementations/VFXSlotVector.cs"
"Library/PackageCache/com.unity.visualeffectgraph@11.0.0/Editor/Models/Slots/VFXSlot.cs"
"Library/PackageCache/com.unity.visualeffectgraph@11.0.0/Editor/Models/VFXErrorManager.cs"
"Library/PackageCache/com.unity.visualeffectgraph@11.0.0/Editor/Models/VFXGraph.cs"
"Library/PackageCache/com.unity.visualeffectgraph@11.0.0/Editor/Models/VFXModel.cs"
"Library/PackageCache/com.unity.visualeffectgraph@11.0.0/Editor/Models/VFXParameterInfo.cs"
"Library/PackageCache/com.unity.visualeffectgraph@11.0.0/Editor/Models/VFXSlotContainerModel.cs"
"Library/PackageCache/com.unity.visualeffectgraph@11.0.0/Editor/Models/VFXSystemNames.cs"
"Library/PackageCache/com.unity.visualeffectgraph@11.0.0/Editor/Models/VFXUI.cs"
"Library/PackageCache/com.unity.visualeffectgraph@11.0.0/Editor/PackageInfo.cs"
"Library/PackageCache/com.unity.visualeffectgraph@11.0.0/Editor/ShaderGraph/VFXShaderGraphParticleOutput.cs"
"Library/PackageCache/com.unity.visualeffectgraph@11.0.0/Editor/ShaderGraph/VFXShaderGraphPostProcessor.cs"
"Library/PackageCache/com.unity.visualeffectgraph@11.0.0/Editor/Types/VFXBoxGizmos.cs"
"Library/PackageCache/com.unity.visualeffectgraph@11.0.0/Editor/Types/VFXCircleGizmos.cs"
"Library/PackageCache/com.unity.visualeffectgraph@11.0.0/Editor/Types/VFXConeGizmos.cs"
"Library/PackageCache/com.unity.visualeffectgraph@11.0.0/Editor/Types/VFXCylinderGizmo.cs"
"Library/PackageCache/com.unity.visualeffectgraph@11.0.0/Editor/Types/VFXLineGizmos.cs"
"Library/PackageCache/com.unity.visualeffectgraph@11.0.0/Editor/Types/VFXPlaneGizmos.cs"
"Library/PackageCache/com.unity.visualeffectgraph@11.0.0/Editor/Types/VFXProperty.cs"
"Library/PackageCache/com.unity.visualeffectgraph@11.0.0/Editor/Types/VFXPropertyAttribute.cs"
"Library/PackageCache/com.unity.visualeffectgraph@11.0.0/Editor/Types/VFXSphereGizmos.cs"
"Library/PackageCache/com.unity.visualeffectgraph@11.0.0/Editor/Types/VFXTorusGizmos.cs"
"Library/PackageCache/com.unity.visualeffectgraph@11.0.0/Editor/Types/VFXTransformGizmos.cs"
"Library/PackageCache/com.unity.visualeffectgraph@11.0.0/Editor/Types/VFXTypeExtension.cs"
"Library/PackageCache/com.unity.visualeffectgraph@11.0.0/Editor/Types/VFXTypes.cs"
"Library/PackageCache/com.unity.visualeffectgraph@11.0.0/Editor/Types/VFXTypesGizmos.cs"
"Library/PackageCache/com.unity.visualeffectgraph@11.0.0/Editor/Types/VFXTypeUtility.cs"
"Library/PackageCache/com.unity.visualeffectgraph@11.0.0/Editor/Utilities/DotGraph/DotAttribute.cs"
"Library/PackageCache/com.unity.visualeffectgraph@11.0.0/Editor/Utilities/DotGraph/DotElement.cs"
"Library/PackageCache/com.unity.visualeffectgraph@11.0.0/Editor/Utilities/DotGraph/DotGraph.cs"
"Library/PackageCache/com.unity.visualeffectgraph@11.0.0/Editor/Utilities/EventTester/VFXEventTesterWindow.cs"
"Library/PackageCache/com.unity.visualeffectgraph@11.0.0/Editor/Utilities/ExposedProperty/ExposedPropertyDrawer.cs"
"Library/PackageCache/com.unity.visualeffectgraph@11.0.0/Editor/Utilities/pCache/BakeTool/PointCacheBakeTool.cs"
"Library/PackageCache/com.unity.visualeffectgraph@11.0.0/Editor/Utilities/pCache/BakeTool/PointCacheBakeTool.Mesh.cs"
"Library/PackageCache/com.unity.visualeffectgraph@11.0.0/Editor/Utilities/pCache/BakeTool/PointCacheBakeTool.Texture.cs"
"Library/PackageCache/com.unity.visualeffectgraph@11.0.0/Editor/Utilities/pCache/Importer/PointCacheImporter.cs"
"Library/PackageCache/com.unity.visualeffectgraph@11.0.0/Editor/Utilities/pCache/Operator/VFXOperatorPointCache.cs"
"Library/PackageCache/com.unity.visualeffectgraph@11.0.0/Editor/Utilities/pCache/PCache.cs"
"Library/PackageCache/com.unity.visualeffectgraph@11.0.0/Editor/Utilities/pCache/PointCache.cs"
"Library/PackageCache/com.unity.visualeffectgraph@11.0.0/Editor/Utilities/pCache/PointCacheAsset.cs"
"Library/PackageCache/com.unity.visualeffectgraph@11.0.0/Editor/Utilities/PropertyBinding/VFXBinderEditor.cs"
"Library/PackageCache/com.unity.visualeffectgraph@11.0.0/Editor/Utilities/PropertyBinding/VFXPropertyBinderEditor.cs"
"Library/PackageCache/com.unity.visualeffectgraph@11.0.0/Editor/Utilities/VectorFieldImporter/Editor/VectorFieldImporter.cs"
"Library/PackageCache/com.unity.visualeffectgraph@11.0.0/Editor/Utilities/VectorFieldImporter/Editor/VectorFieldImporterEditor.cs"
"Library/PackageCache/com.unity.visualeffectgraph@11.0.0/Editor/Utilities/VisualEffectActivationBehaviourInspector.cs"
"Library/PackageCache/com.unity.visualeffectgraph@11.0.0/Editor/Utils/VFXContextBorder.cs"
"Library/PackageCache/com.unity.visualeffectgraph@11.0.0/Editor/Utils/VFXDebugWindow.cs"
"Library/PackageCache/com.unity.visualeffectgraph@11.0.0/Editor/Utils/VFXResources.cs"
"Library/PackageCache/com.unity.visualeffectgraph@11.0.0/Editor/Utils/VFXSystemBorder.cs"
"Library/PackageCache/com.unity.visualeffectgraph@11.0.0/Editor/VFXAssetEditorUtility.cs"
"Library/PackageCache/com.unity.visualeffectgraph@11.0.0/Editor/VisualElementExtensions.cs"
-langversion:8.0

/deterministic
/optimize+
/debug:portable
/nologo
/RuntimeMetadataVersion:v4.0.30319

/nowarn:0169
/nowarn:0649
/utf8output
/preferreduilang:en-US
-warn:0